<?xml version="1.0" encoding="UTF-8" standalone="no"?>
<!-- Created with Inkscape (http://www.inkscape.org/) -->
<svg
   xmlns:dc="http://purl.org/dc/elements/1.1/"
   xmlns:cc="http://web.resource.org/cc/"
   xmlns:rdf="http://www.w3.org/1999/02/22-rdf-syntax-ns#"
   xmlns:svg="http://www.w3.org/2000/svg"
   xmlns="http://www.w3.org/2000/svg"
   xmlns:sodipodi="http://sodipodi.sourceforge.net/DTD/sodipodi-0.dtd"
   xmlns:inkscape="http://www.inkscape.org/namespaces/inkscape"
   width="601.23645"
   height="506.35291"
   id="svg2"
   sodipodi:version="0.32"
   inkscape:version="0.44.1"
   sodipodi:docbase="C:\Documents and Settings\Ash_Crow\Bureau\wip"
   sodipodi:docname="take ni Suzume.svg"
   version="1.0">
  <defs
     id="defs4" />
  <sodipodi:namedview
     id="base"
     pagecolor="#ffffff"
     bordercolor="#666666"
     borderopacity="1.0"
     inkscape:pageopacity="0.0"
     inkscape:pageshadow="2"
     inkscape:zoom="0.70710678"
     inkscape:cx="168.7547"
     inkscape:cy="356.70901"
     inkscape:document-units="px"
     inkscape:current-layer="layer1"
     inkscape:window-width="1280"
     inkscape:window-height="968"
     inkscape:window-x="-4"
     inkscape:window-y="-4" />
  <metadata
     id="metadata7">
    <rdf:RDF>
      <cc:Work
         rdf:about="">
        <dc:format>image/svg+xml</dc:format>
        <dc:type
           rdf:resource="http://purl.org/dc/dcmitype/StillImage" />
      </cc:Work>
    </rdf:RDF>
  </metadata>
  <g
     inkscape:groupmode="layer"
     id="layer2"
     inkscape:label="ref"
     style="display:inline"
     transform="translate(-2.093751,-161.4393)" />
  <g
     inkscape:label="Calque 1"
     inkscape:groupmode="layer"
     id="layer1"
     style="display:inline"
     transform="translate(-2.093751,-161.4393)">
    <g
       id="g26963"
       style="fill:black;fill-opacity:1"
       transform="matrix(0.852545,0,0,0.832334,-92.61867,3.762503)">
      <path
         sodipodi:nodetypes="ccc"
         id="path3680"
         d="M 361.82346,189.43937 C 398.44149,273.28203 326.97319,314.19322 326.97319,314.19322 C 312.18591,267.45818 337.36531,216.80591 361.82346,189.43937 z "
         style="fill:black;fill-opacity:1;fill-rule:evenodd;stroke:none;stroke-width:1px;stroke-linecap:butt;stroke-linejoin:miter;stroke-opacity:1" />
      <path
         id="path3682"
         d="M 404.15625,276.15625 C 366.68472,276.59178 347.99854,297.22271 338.40625,316.09375 C 351.82227,323.11271 424.58681,324.62621 462.40625,288.0625 C 439.16756,279.39981 419.97756,275.97236 404.15625,276.15625 z M 414.15625,289.3125 C 416.31697,289.3125 418.0625,291.05803 418.0625,293.21875 C 418.06251,295.37947 416.31697,297.15625 414.15625,297.15625 C 411.99554,297.15626 410.25,295.37947 410.25,293.21875 C 410.25,291.05804 411.99553,289.3125 414.15625,289.3125 z M 379.1875,295.5 C 381.34822,295.5 383.09375,297.24553 383.09375,299.40625 C 383.09376,301.56697 381.34822,303.34375 379.1875,303.34375 C 377.02679,303.34376 375.28125,301.56697 375.28125,299.40625 C 375.28125,297.24554 377.02678,295.5 379.1875,295.5 z "
         style="fill:black;fill-opacity:1;fill-rule:evenodd;stroke:none;stroke-width:1px;stroke-linecap:butt;stroke-linejoin:miter;stroke-opacity:1" />
      <path
         sodipodi:nodetypes="ccccccc"
         id="path3710"
         d="M 346.375,307.8125 C 318.94002,322.67353 292.99506,357.25641 288.89705,389.06873 C 287.40957,400.14816 289.89303,408.86191 291.74107,419.84821 C 294.36264,423.88302 300.0787,419.60434 298.04553,415.57139 C 292.82151,394.00376 301.39368,359.79373 319.64581,337.57657 C 328.1697,327.66556 339.45453,320.33479 350.15625,313.0625 C 351.77996,310.51373 349.29149,307.12318 346.375,307.8125 z "
         style="opacity:1;fill:black;fill-opacity:1;fill-rule:evenodd;stroke:none;stroke-width:3;stroke-linecap:round;stroke-linejoin:round;stroke-miterlimit:4;stroke-dasharray:none;stroke-opacity:1" />
      <path
         sodipodi:nodetypes="cccccccc"
         id="path4599"
         d="M 223.28125,567.4375 C 217.346,569.03038 222.09544,575.86383 223.31873,579.29948 C 238.42887,615.03926 260.08459,648.76241 289.96875,673.84375 C 295.03229,677.16055 298.30395,682.08952 304.9421,680.14356 C 308.58097,677.71009 305.18561,672.65824 301.59581,673.01475 C 286.56914,665.57662 278.54168,653.72064 267.87375,641.18913 C 250.16715,619.3932 236.71797,594.48863 226.28125,568.5 C 225.5292,567.69096 224.38091,567.24942 223.28125,567.4375 z "
         style="opacity:1;fill:black;fill-opacity:1;fill-rule:evenodd;stroke:none;stroke-width:3;stroke-linecap:round;stroke-linejoin:round;stroke-miterlimit:4;stroke-dasharray:none;stroke-opacity:1;display:inline" />
      <path
         sodipodi:nodetypes="ccc"
         id="path10404"
         d="M 306.19383,215.3424 C 340.80244,297.3159 309.52826,337.30543 298.48642,347.77482 C 276.02057,309.96835 279.05711,242.88751 306.19383,215.3424 z "
         style="fill:black;fill-opacity:1;fill-rule:evenodd;stroke:none;stroke-width:1px;stroke-linecap:butt;stroke-linejoin:miter;stroke-opacity:1;display:inline" />
      <path
         sodipodi:nodetypes="ccc"
         id="path10406"
         d="M 253.77423,243.11026 C 293.56141,294.54805 294.07295,359.00186 281.60254,385.00697 C 248.60097,370.9505 235.56608,305.65537 253.77423,243.11026 z "
         style="fill:black;fill-opacity:1;fill-rule:evenodd;stroke:none;stroke-width:1px;stroke-linecap:butt;stroke-linejoin:miter;stroke-opacity:1;display:inline" />
      <path
         id="path10408"
         d="M 203.59375,324.4375 C 210.20703,388.05404 250.37343,444.44353 275.875,442.25 C 287.45255,383.20917 230.70236,336.76814 203.59375,324.4375 z M 245.34375,387.71875 C 247.50447,387.71876 249.25,389.46428 249.25,391.625 C 249.25001,393.78573 247.50447,395.5625 245.34375,395.5625 C 243.18304,395.56252 241.4375,393.78572 241.4375,391.625 C 241.4375,389.4643 243.18303,387.71875 245.34375,387.71875 z "
         style="fill:black;fill-opacity:1;fill-rule:evenodd;stroke:none;stroke-width:1px;stroke-linecap:butt;stroke-linejoin:miter;stroke-opacity:1;display:inline" />
      <path
         sodipodi:nodetypes="ccc"
         id="path10410"
         d="M 169.87102,371.29356 C 194.83677,373.26706 262.49117,418.61372 262.52076,478.36884 C 229.34062,475.3838 180.77001,418.83867 169.87102,371.29356 z "
         style="fill:black;fill-opacity:1;fill-rule:evenodd;stroke:none;stroke-width:1px;stroke-linecap:butt;stroke-linejoin:miter;stroke-opacity:1;display:inline" />
      <path
         sodipodi:nodetypes="ccc"
         id="path10418"
         d="M 158.67513,421.14597 C 180.78374,420.79805 249.50957,464.00185 254.53916,517.68554 C 211.89473,515.59336 169.57412,468.69108 158.67513,421.14597 z "
         style="fill:black;fill-opacity:1;fill-rule:evenodd;stroke:none;stroke-width:1px;stroke-linecap:butt;stroke-linejoin:miter;stroke-opacity:1;display:inline" />
      <path
         sodipodi:nodetypes="ccc"
         id="path10420"
         d="M 149.74656,476.41486 C 168.28375,475.70979 235.40244,510.34217 230.07488,581.52586 C 137.43045,535.14796 158.5027,484.49568 149.74656,476.41486 z "
         style="fill:black;fill-opacity:1;fill-rule:evenodd;stroke:none;stroke-width:1px;stroke-linecap:butt;stroke-linejoin:miter;stroke-opacity:1;display:inline" />
      <path
         id="path12198"
         d="M 138.5625,544.90625 C 128.1677,544.9476 118.66106,547.02505 111.09375,551.25 C 133.06417,590.93797 199.65915,608.89443 230.875,603.84375 C 215.81329,566.16014 172.51885,544.77118 138.5625,544.90625 z M 154.8125,562.375 C 156.97322,562.37498 158.71875,564.12053 158.71875,566.28125 C 158.71876,568.44195 156.97322,570.21875 154.8125,570.21875 C 152.65179,570.21874 150.90625,568.44197 150.90625,566.28125 C 150.90625,564.12052 152.65178,562.375 154.8125,562.375 z M 187.6875,577.71875 C 189.84822,577.71876 191.59375,579.46428 191.59375,581.625 C 191.59376,583.78573 189.84822,585.5625 187.6875,585.5625 C 185.52679,585.56252 183.78125,583.78572 183.78125,581.625 C 183.78125,579.4643 185.52678,577.71875 187.6875,577.71875 z "
         style="fill:black;fill-opacity:1;fill-rule:evenodd;stroke:none;stroke-width:1px;stroke-linecap:butt;stroke-linejoin:miter;stroke-opacity:1;display:inline" />
      <path
         sodipodi:nodetypes="ccc"
         id="path12207"
         d="M 123.31799,612.66487 C 140.96231,599.28124 234.331,596.77075 254.36059,639.02587 C 241.71616,647.11226 153.68126,650.38855 123.31799,612.66487 z "
         style="fill:black;fill-opacity:1;fill-rule:evenodd;stroke:none;stroke-width:1px;stroke-linecap:butt;stroke-linejoin:miter;stroke-opacity:1;display:inline" />
      <path
         sodipodi:nodetypes="ccc"
         id="path12209"
         d="M 152.33584,665.22445 C 179.98016,648.44797 265.31313,633.79462 285.34272,676.04974 C 274.12686,691.63613 208.4134,698.66242 152.33584,665.22445 z "
         style="fill:black;fill-opacity:1;fill-rule:evenodd;stroke:none;stroke-width:1px;stroke-linecap:butt;stroke-linejoin:miter;stroke-opacity:1;display:inline" />
      <path
         id="path12212"
         d="M 326.03125,705.90625 C 279.60722,706.9822 240.37395,732.35467 223.84375,745.0625 C 252.49147,756.03439 282.34418,756.69375 308.09375,751.90625 C 309.4252,750.98139 310.80906,750.02873 312.3125,749.03125 C 320.98662,743.27626 332.37352,736.48568 345.21875,730.21875 C 347.82412,728.94764 350.47318,727.68387 353.1875,726.46875 C 343.96922,720.96291 334.79822,714.21617 326.03125,705.90625 z M 294.09375,727.1875 C 296.25446,727.1875 298,728.93303 298,731.09375 C 298,733.25447 296.25447,735.03125 294.09375,735.03125 C 291.93303,735.03126 290.1875,733.25447 290.1875,731.09375 C 290.18749,728.93304 291.93303,727.1875 294.09375,727.1875 z M 355.15625,727.65625 C 351.93238,729.07207 348.76258,730.53098 345.6875,732.03125 C 332.88905,738.27537 321.54663,745.04866 312.90625,750.78125 C 309.00236,753.37134 305.67942,755.72492 303,757.75 C 286.1382,773.38611 273.68437,788.73401 268.6875,796.9375 C 336.11261,802.70492 386.71619,776.96361 412.21875,748.03125 C 395.85211,745.13204 375.47512,739.39466 355.15625,727.65625 z "
         style="fill:black;fill-opacity:1;fill-rule:evenodd;stroke:none;stroke-width:1px;stroke-linecap:butt;stroke-linejoin:miter;stroke-opacity:1;display:inline" />
      <path
         id="path12252"
         d="M 333.03125,579.90625 C 338.75167,621.91565 356.0163,641.48371 388.125,646.96875 C 392.15396,611.1063 351.74699,585.62972 333.03125,579.90625 z M 353.5625,602.90625 C 355.72321,602.90624 357.46875,604.65178 357.46875,606.8125 C 357.46875,608.97321 355.72322,610.75 353.5625,610.75 C 351.40178,610.75 349.65625,608.97322 349.65625,606.8125 C 349.65624,604.65178 351.40178,602.90625 353.5625,602.90625 z M 369.09375,620.59375 C 371.25446,620.59378 373,622.33928 373,624.5 C 373,626.66075 371.25447,628.4375 369.09375,628.4375 C 366.93303,628.43754 365.1875,626.66072 365.1875,624.5 C 365.18749,622.33932 366.93303,620.59375 369.09375,620.59375 z "
         style="fill:black;fill-opacity:1;fill-rule:evenodd;stroke:none;stroke-width:1px;stroke-linecap:butt;stroke-linejoin:miter;stroke-opacity:1;display:inline" />
      <path
         sodipodi:nodetypes="ccc"
         id="path12254"
         d="M 388.60853,596.83332 C 417.67834,604.82966 430.55336,644.96621 416.42287,669.46444 C 395.93091,658.17102 387.76295,619.64982 388.60853,596.83332 z "
         style="fill:black;fill-opacity:1;fill-rule:evenodd;stroke:none;stroke-width:1px;stroke-linecap:butt;stroke-linejoin:miter;stroke-opacity:1;display:inline" />
      <path
         sodipodi:nodetypes="ccc"
         id="path12256"
         d="M 350.47527,651.63409 C 360.60472,651.80175 390.90488,645.21874 403.54343,678.05073 C 382.29386,677.86899 372.35813,680.76404 350.47527,651.63409 z "
         style="fill:black;fill-opacity:1;fill-rule:evenodd;stroke:none;stroke-width:1px;stroke-linecap:butt;stroke-linejoin:miter;stroke-opacity:1;display:inline" />
      <path
         sodipodi:nodetypes="ccc"
         id="path12260"
         d="M 447.56824,614.63725 C 458.96038,647.38233 442.28845,680.70035 432.95618,689.03614 C 416.25229,669.15642 430.30769,623.05908 447.56824,614.63725 z "
         style="fill:black;fill-opacity:1;fill-rule:evenodd;stroke:none;stroke-width:1px;stroke-linecap:butt;stroke-linejoin:miter;stroke-opacity:1;display:inline" />
      <path
         sodipodi:nodetypes="cccccc"
         id="path12266"
         d="M 384.15625,641.6875 C 379.45603,645.7206 389.91068,650.51103 391.91442,654.87914 C 403.62053,667.97106 417.09037,680.94033 428.79902,694.02998 C 433.67464,691.42697 425.96866,686.71199 423.18594,682.86905 C 410.17821,669.20224 397.27452,655.33302 385.75,640.21875 C 385.21875,640.70833 384.6875,641.19792 384.15625,641.6875 z "
         style="fill:black;fill-opacity:1;fill-rule:evenodd;stroke:none;stroke-width:1px;stroke-linecap:butt;stroke-linejoin:miter;stroke-opacity:1" />
      <path
         id="path14051"
         d="M 254.90625,551.46875 C 260.53745,611.28858 280.52686,652.81435 303.96875,681.53125 L 346.4375,646.125 C 320.47407,622.66601 304.89639,576.09469 307.9375,551.71875 L 254.90625,551.46875 z M 347.1875,646.8125 L 304.625,682.28125 C 336.88667,721.38658 375.40146,736.4352 391.8125,741.46875 C 384.34072,732.5274 374.82059,726.81293 363.6875,720.4375 C 352.10679,713.80574 338.77808,706.44686 324.3125,694 L 324.96875,693.25 C 339.35179,705.62584 352.56502,712.92471 364.15625,719.5625 C 371.36148,723.68862 377.85151,727.66214 383.65625,732.34375 C 384.17371,729.90543 385.77318,728.30142 387.96875,727.4375 C 388.96176,727.04677 390.10814,726.82237 391.3125,726.65625 C 374.97488,713.87776 348.54238,706.55173 330.25,691.375 L 330.90625,690.59375 C 346.24966,703.32379 367.59568,710.52532 383.875,720.375 C 384.45371,718.71325 385.72072,717.47218 387.625,716.75 C 389.81917,715.91788 392.65512,715.56853 395.84375,715.4375 C 402.06404,715.1819 409.53395,715.7571 415.65625,715.59375 L 416.4375,689.28125 C 404.54525,688.21139 398.59894,685.61782 389.78125,679.25 C 366.98123,676.16368 360.2649,665.08933 349,650.09375 C 349.63309,650.10423 350.33702,650.08564 351.125,650.0625 C 349.78179,649.04605 348.48109,647.94974 347.1875,646.8125 z M 417.4375,689.375 L 415.65625,747.1875 C 417.92451,747.58683 420.11855,747.91698 422.21875,748.21875 L 424,689.75 C 421.62135,689.65718 419.44164,689.53671 417.4375,689.375 z M 425,689.78125 L 423.1875,748.375 C 427.66151,748.99707 431.70718,749.42778 435.21875,749.71875 L 434.75,690 C 431.13148,689.96232 427.93442,689.88328 425,689.78125 z M 398.25,716.375 C 397.45103,716.38378 396.66909,716.40615 395.90625,716.4375 C 392.76783,716.56646 389.97824,716.92542 387.96875,717.6875 C 386.14052,718.38084 385.09725,719.42525 384.6875,720.875 C 387.57612,722.65802 390.33229,724.51928 392.8125,726.53125 C 393.88844,726.45097 394.98108,726.38792 396.15625,726.40625 C 402.27196,726.50165 409.4801,727.63182 415.28125,727.5625 L 415.625,716.59375 C 410.20078,716.73458 403.84276,716.31352 398.25,716.375 z M 396.125,727.40625 C 394.97516,727.38831 393.94125,727.45315 392.90625,727.53125 L 392.75,727.71875 C 392.67211,727.65396 392.57842,727.59576 392.5,727.53125 C 390.93896,727.67257 389.50299,727.91886 388.34375,728.375 C 386.33352,729.16599 385.02394,730.44348 384.59375,732.625 L 383.8125,732.46875 C 387.28579,735.28543 390.58387,738.30278 393.46875,741.9375 L 393.4375,741.96875 C 400.98157,744.20874 408.14142,745.81582 414.6875,747 L 415.25,728.5625 C 409.31149,728.62711 402.10467,727.49953 396.125,727.40625 z "
         style="fill:black;fill-opacity:1;fill-rule:evenodd;stroke:none;stroke-width:1px;stroke-linecap:butt;stroke-linejoin:miter;stroke-opacity:1" />
      <path
         sodipodi:nodetypes="csssc"
         id="path16743"
         d="M 443.41278,685.58316 C 448.32821,685.58316 452.29911,689.55406 452.29911,694.46949 C 452.29913,699.38492 448.32821,703.42691 443.41278,703.42691 C 438.49738,703.42693 434.52645,699.38492 434.52645,694.46949 C 434.52645,689.55409 438.49735,685.58316 443.41278,685.58316 z "
         style="fill:black;fill-opacity:1;fill-rule:evenodd;stroke:none;stroke-width:1px;stroke-linecap:butt;stroke-linejoin:miter;stroke-opacity:1;display:inline" />
      <path
         sodipodi:nodetypes="csssc"
         id="path16745"
         d="M 443.39286,702.90459 C 448.30829,702.90459 452.27919,706.87549 452.27919,711.79092 C 452.27921,716.70635 448.30829,720.74834 443.39286,720.74834 C 438.47746,720.74836 434.50653,716.70635 434.50653,711.79092 C 434.50653,706.87552 438.47743,702.90459 443.39286,702.90459 z "
         style="fill:black;fill-opacity:1;fill-rule:evenodd;stroke:none;stroke-width:1px;stroke-linecap:butt;stroke-linejoin:miter;stroke-opacity:1;display:inline" />
      <path
         sodipodi:nodetypes="csssc"
         id="path16747"
         d="M 443.21428,720.58316 C 448.12971,720.58316 452.10061,724.55406 452.10061,729.46949 C 452.10063,734.38492 448.12971,738.42691 443.21428,738.42691 C 438.29888,738.42693 434.32795,734.38492 434.32795,729.46949 C 434.32795,724.55409 438.29885,720.58316 443.21428,720.58316 z "
         style="fill:black;fill-opacity:1;fill-rule:evenodd;stroke:none;stroke-width:1px;stroke-linecap:butt;stroke-linejoin:miter;stroke-opacity:1;display:inline" />
      <path
         sodipodi:nodetypes="csssc"
         id="path16749"
         d="M 443.57142,737.99388 C 448.48685,737.99388 452.45775,741.96478 452.45775,746.88021 C 452.45777,751.79564 448.48685,755.83763 443.57142,755.83763 C 438.65602,755.83765 434.68509,751.79564 434.68509,746.88021 C 434.68509,741.96481 438.65599,737.99388 443.57142,737.99388 z "
         style="fill:black;fill-opacity:1;fill-rule:evenodd;stroke:none;stroke-width:1px;stroke-linecap:butt;stroke-linejoin:miter;stroke-opacity:1;display:inline" />
      <path
         sodipodi:nodetypes="cccccccc"
         id="path16852"
         d="M 317.71875,453.1875 C 313.19634,455.81701 317.79554,459.08101 319.10216,462.22002 C 332.6063,478.79363 338.90984,503.58838 326.32344,522.43242 C 319.98277,532.21604 310.63205,538.2377 299.625,540.34375 C 298.36425,546.57445 303.69861,546.09226 307.59883,544.94765 C 329.56727,539.66134 343.61139,515.13029 340.44258,493.15625 C 338.69472,477.38013 329.82663,463.25096 319.21875,451.78125 C 318.71875,452.25 318.21875,452.71875 317.71875,453.1875 z "
         style="fill:black;fill-opacity:1;fill-rule:evenodd;stroke:none;stroke-width:1px;stroke-linecap:butt;stroke-linejoin:miter;stroke-opacity:1" />
      <path
         sodipodi:nodetypes="cccsccccccssccssccccccsccccsccscc"
         id="path17750"
         d="M 309.73661,395.20982 C 276.66714,439.53155 254.48797,488.61791 255.6875,549.4375 L 272.46875,549.53125 C 271.97156,543.826 272.15112,537.03079 273.625,531.1875 C 275.13143,525.21518 278.06455,520.24642 283.0625,518.6875 C 284.52035,492.97511 297.97292,458.60163 309.96875,442.6875 L 310.75,443.28125 C 299.00782,458.85888 285.63417,493.0268 284.09375,518.40625 C 287.11456,520.31599 289.04132,522.31004 290.5625,524.96875 C 291.54404,523.36396 292.56345,522.13684 293.59375,521.375 C 294.31226,508.49528 298.64597,489.40413 304.59375,472.3125 C 307.58078,463.72891 310.9517,455.66342 314.5,449.15625 C 318.0483,442.64908 321.72864,437.69787 325.4375,435.34375 L 325.96875,436.1875 C 322.54847,438.35845 318.8851,443.1879 315.375,449.625 C 311.8649,456.0621 308.50499,464.07962 305.53125,472.625 C 299.59674,489.67851 295.25714,508.82207 294.5625,521.53125 C 299.06231,523.40573 302.22272,526.26285 304.5,528.90625 C 303.68877,499.32736 308.56923,468.72124 342.5625,433 L 309.73661,395.20982 z M 283.84375,519.40625 L 283.65625,519.46875 C 278.92523,520.75443 276.09481,525.48649 274.59375,531.4375 C 273.15348,537.14749 272.97102,543.90006 273.46875,549.53125 L 305.6875,549.6875 C 305.20781,543.31842 304.78259,536.94603 304.5625,530.53125 C 302.27393,527.67429 298.98006,524.39602 294.03125,522.375 C 292.17556,523.85904 289.91404,527.57756 288.1875,532.4375 C 286.37056,537.5519 285.10989,543.76395 285.15625,549.5 L 284.15625,549.5 C 284.10864,543.60994 285.39736,537.30865 287.25,532.09375 C 288.08795,529.73506 289.0722,527.7154 290.0625,525.9375 C 288.60346,523.20055 286.78417,521.31085 283.84375,519.40625 z "
         style="fill:black;fill-opacity:1;fill-rule:evenodd;stroke:none;stroke-width:1px;stroke-linecap:butt;stroke-linejoin:miter;stroke-opacity:1" />
      <path
         sodipodi:nodetypes="ccc"
         id="path19523"
         d="M 352.39449,429.90217 C 361.98822,427.21269 389.78838,426.34397 404.92693,441.85453 C 392.31007,448.7977 363.38449,455.46069 352.39449,429.90217 z "
         style="fill:black;fill-opacity:1;fill-rule:evenodd;stroke:none;stroke-width:1px;stroke-linecap:butt;stroke-linejoin:miter;stroke-opacity:1;display:inline" />
      <path
         sodipodi:nodetypes="ccc"
         id="path19525"
         d="M 382.93021,420.18504 C 392.52394,416.42413 429.25267,416.62684 440.81979,433.74454 C 429.03451,438.20565 393.92021,445.74356 382.93021,420.18504 z "
         style="fill:black;fill-opacity:1;fill-rule:evenodd;stroke:none;stroke-width:1px;stroke-linecap:butt;stroke-linejoin:miter;stroke-opacity:1;display:inline" />
      <path
         sodipodi:nodetypes="ccc"
         id="path19559"
         d="M 396.59093,410.5192 C 400.11323,404.43686 434.52053,385.17529 460.1948,402.65013 C 451.44523,407.46838 430.79522,427.68486 396.59093,410.5192 z "
         style="fill:black;fill-opacity:1;fill-rule:evenodd;stroke:none;stroke-width:1px;stroke-linecap:butt;stroke-linejoin:miter;stroke-opacity:1;display:inline" />
      <path
         id="path19561"
         d="M 401.1875,406.75 C 378.34689,414.08488 355.45169,421.61622 333.90625,432.21875 C 335.03799,439.61722 340.81016,433.961 345.15625,432.46875 C 364.44916,423.88562 384.56395,417.36001 404.65625,410.90625 C 403.53244,409.34247 404.21986,404.65011 401.1875,406.75 z "
         style="fill:black;fill-opacity:1;fill-rule:evenodd;stroke:none;stroke-width:1px;stroke-linecap:butt;stroke-linejoin:miter;stroke-opacity:1" />
      <path
         id="path20456"
         d="M 366.1875,322.8125 C 350.1401,322.89587 333.98326,329.08209 322.03125,344.21875 C 338.14213,343.90792 354.48893,345.97786 367.75,350.90625 C 367.75914,350.90965 367.77211,350.90285 367.78125,350.90625 C 381.11078,344.30578 394.52266,339.66187 407.875,336.59375 C 396.60695,328.16179 381.45881,322.73316 366.1875,322.8125 z M 337.875,351.75 C 322.27463,351.99764 308.10518,359.58365 304.4375,378.28125 C 312.74983,377.53165 320.04663,377.62581 326.4375,378.40625 C 337.18375,369.25854 348.07443,361.69509 359.03125,355.53125 C 352.24786,353.00817 344.90458,351.63841 337.875,351.75 z M 423.71875,379.53125 C 414.69309,380.26112 405.57057,381.76146 396.15625,385.40625 C 395.88918,392.015 393.72589,399.50402 389.1875,407.9375 C 408.48341,399.66095 419.22214,389.68066 423.71875,379.53125 z M 386.96875,389.625 C 379.48466,393.67584 371.78683,399.35051 363.78125,407.3125 C 364.53465,410.25751 364.99551,413.3308 365.1875,416.5 C 379.3606,407.60238 385.79043,398.31123 386.96875,389.625 z "
         style="fill:black;fill-opacity:1;fill-rule:evenodd;stroke:none;stroke-width:1px;stroke-linecap:butt;stroke-linejoin:miter;stroke-opacity:1;display:inline" />
      <path
         id="path20460"
         d="M 451.28125,332.25 C 440.19344,332.36758 428.96463,333.3472 417.6875,335.375 C 417.78256,335.48715 417.84239,335.53917 417.9375,335.65625 C 418.4696,336.31122 418.99406,337.03873 419.1875,337.8125 C 419.2455,338.04448 419.78402,338.60246 420.4375,339.03125 C 421.09098,339.46004 421.81606,339.79865 422.21875,340 C 423.60641,340.69382 425.23773,341.21875 426.78125,341.21875 C 427.69804,341.21875 428.36738,341.34195 428.96875,341.46875 C 429.57012,341.59555 430.12106,341.71875 430.84375,341.71875 C 432.60192,341.71874 434.75716,342.90911 436.3125,343.53125 C 438.46914,344.39391 440.11897,344.75 442.4375,344.75 C 443.9636,344.75 445.35924,344.5 447.25,344.5 C 448.19689,344.5 448.95898,344.8615 449.5625,345.34375 C 450.16602,345.826 450.62643,346.43893 451.125,346.9375 C 452.23961,348.05212 453.68821,348.92222 455.03125,349.59375 C 456.40595,350.2811 458.05256,351.01052 459.71875,351.34375 C 461.79322,351.75866 462.65941,352.34375 464.9375,352.34375 C 467.29453,352.34376 469.64297,352.34375 472,352.34375 C 474.0203,352.34376 476.0422,352.34375 478.0625,352.34375 C 480.19473,352.34376 482.17156,352.32415 484.25,352.84375 C 486.25874,353.34594 488.2025,353.59375 490.4375,353.59375 C 492.42961,353.59375 493.60644,354.04394 494.8125,355.25 C 495.80258,356.24007 496.36966,356.38662 497.8125,357.46875 C 497.8929,357.52905 498.19216,357.64795 498.59375,357.71875 C 498.99534,357.78955 499.49544,357.85178 500,357.875 C 501.00913,357.92143 502.04891,357.875 502.5625,357.875 C 504.49862,357.87499 506.40762,357.875 508.34375,357.875 C 509.93803,357.87499 511.1564,358.06254 512.53125,358.40625 C 513.17867,358.56812 513.46002,358.94313 515.3125,359.40625 C 516.42334,359.68396 518.28859,359.40625 519.71875,359.40625 C 521.5685,359.40624 523.57286,360.37708 525.125,360.6875 C 526.789,361.02029 528.11887,361.29534 529.6875,361.6875 C 530.60591,361.9171 532.15279,361.6875 533.375,361.6875 C 534.96384,361.68752 535.97632,363.07007 536.5,363.59375 C 537.46953,364.56332 537.99674,364.89599 539.21875,365.8125 C 539.44312,365.97646 539.5077,366.30689 539.34375,366.53125 C 539.17979,366.75561 538.84937,366.78896 538.625,366.625 C 537.41959,365.72093 536.79864,365.29868 535.78125,364.28125 C 535.14809,363.64809 534.34385,362.68751 533.375,362.6875 C 532.31353,362.6875 530.72159,362.97727 529.4375,362.65625 C 527.88575,362.26831 526.59277,361.98729 524.9375,361.65625 C 523.18214,361.30519 521.19488,360.40624 519.71875,360.40625 C 518.44885,360.40625 516.54795,360.74636 515.0625,360.375 C 513.10904,359.88664 512.46801,359.42169 512.28125,359.375 C 510.95852,359.04431 509.8662,358.87499 508.34375,358.875 C 506.40762,358.875 504.49861,358.87499 502.5625,358.875 C 502.09093,358.875 500.99769,358.92378 499.9375,358.875 C 499.4074,358.85061 498.87641,358.80164 498.40625,358.71875 C 497.93609,358.63586 497.52664,358.53559 497.1875,358.28125 C 495.8073,357.2461 495.20715,357.05089 494.125,355.96875 C 493.04196,354.88571 492.30144,354.59375 490.4375,354.59375 C 490.01138,354.59375 489.66005,354.45477 489.25,354.4375 C 489.24149,354.44667 489.25531,354.46418 489.25,354.46875 C 489.22699,354.48854 489.2021,354.52166 489.1875,354.53125 C 489.12911,354.56962 489.08821,354.55161 489.0625,354.5625 C 489.01109,354.58429 488.99483,354.6061 488.9375,354.625 C 488.82284,354.66279 488.65693,354.72744 488.46875,354.78125 C 488.09239,354.88888 487.57543,355.0139 487.03125,355.15625 C 485.94288,355.44095 484.74935,355.73763 484.21875,355.84375 C 482.54189,356.17912 480.99749,356.625 479.0625,356.625 C 477.11734,356.62501 476.3731,357.25095 474.75,358.0625 C 473.90422,358.4854 473.39289,359.08044 472.78125,359.625 C 472.16961,360.16956 471.39144,360.65625 470.21875,360.65625 C 468.25925,360.65625 465.94339,361.15625 463.65625,361.15625 C 461.55174,361.15626 459.44824,361.15625 457.34375,361.15625 C 455.91271,361.15626 454.49355,361.15625 453.0625,361.15625 C 451.87107,361.15626 450.00752,362.44748 448.8125,363.34375 C 447.6748,364.19703 446.38154,364.36555 445.09375,364.6875 C 444.62,364.80593 443.90773,365.28335 443.25,365.875 C 442.59227,366.46665 441.96513,367.15987 441.53125,367.59375 C 440.80372,368.32128 440.34494,369.12305 439.8125,369.96875 C 439.28006,370.81445 438.66568,371.70387 437.6875,372.4375 C 436.29529,373.48166 435.13452,374.89039 434.28125,376.3125 C 433.9551,376.85607 433.69701,377.26547 433.4375,377.59375 C 442.99544,377.16211 452.52405,376.95501 462.25,375.25 C 462.26018,375.24822 462.27107,375.25179 462.28125,375.25 C 499.14951,381.79789 533.07018,366.33481 576.875,424.90625 L 584.90625,428.46875 L 613.3125,394 C 564.58568,344.25877 512.12087,330.65861 462.84375,332.4375 C 459.01185,332.28375 455.14905,332.20898 451.28125,332.25 z M 416.5625,335.5625 C 381.26645,342.13025 345.4523,359.24582 311.4375,393.96875 L 339.8125,428.4375 L 347.84375,424.875 C 379.3356,382.7672 405.72954,378.92541 431.78125,377.65625 C 431.90921,377.58201 432.05378,377.51506 432.15625,377.4375 C 432.53323,377.15218 432.86968,376.75886 433.4375,375.8125 C 434.34375,374.30209 435.56538,372.77128 437.09375,371.625 C 437.92417,371.00219 438.4506,370.26051 438.96875,369.4375 C 439.4869,368.61449 440.00612,367.71263 440.84375,366.875 C 441.24805,366.4707 441.85838,365.78963 442.5625,365.15625 C 443.26662,364.52287 444.02691,363.92296 444.84375,363.71875 C 446.19098,363.38194 447.32663,363.20034 448.21875,362.53125 C 449.41757,361.63214 451.25889,360.15627 453.0625,360.15625 C 454.49355,360.15625 455.91272,360.15626 457.34375,360.15625 C 459.44824,360.15625 461.55175,360.15626 463.65625,360.15625 C 465.79109,360.15625 468.09435,359.65625 470.21875,359.65625 C 471.1383,359.65625 471.58138,359.359 472.125,358.875 C 472.66862,358.391 473.25402,357.70112 474.28125,357.1875 C 475.82187,356.41719 476.8832,355.62501 479.0625,355.625 C 480.84775,355.625 482.31018,355.21921 484.03125,354.875 C 484.48842,354.78356 485.70241,354.46971 486.78125,354.1875 C 486.81781,354.17794 486.83877,354.16577 486.875,354.15625 C 485.93355,354.02947 484.93052,354.04513 484,353.8125 C 482.06638,353.3291 480.19362,353.34376 478.0625,353.34375 C 476.0422,353.34375 474.02031,353.34376 472,353.34375 C 469.64297,353.34375 467.29453,353.34376 464.9375,353.34375 C 462.48781,353.34375 461.47357,352.70097 459.53125,352.3125 C 457.7239,351.95103 456.00621,351.20623 454.59375,350.5 C 453.19119,349.79871 451.66796,348.85547 450.4375,347.625 C 449.89574,347.08324 449.4307,346.51909 448.9375,346.125 C 448.4443,345.73091 447.94696,345.5 447.25,345.5 C 445.45048,345.5 444.0702,345.75 442.4375,345.75 C 440.01085,345.75 438.1704,345.36192 435.9375,344.46875 C 434.29864,343.81321 432.10308,342.71875 430.84375,342.71875 C 430.01271,342.71875 429.37759,342.59449 428.78125,342.46875 C 428.18491,342.34301 427.6011,342.21875 426.78125,342.21875 C 425.01867,342.21875 423.27163,341.65144 421.78125,340.90625 C 421.38561,340.70843 420.59862,340.31857 419.875,339.84375 C 419.15138,339.36893 418.42004,338.86764 418.21875,338.0625 C 418.09842,337.58119 417.6837,336.89202 417.1875,336.28125 C 416.96043,336.00175 416.78442,335.80719 416.5625,335.5625 z "
         style="fill:black;fill-opacity:1;fill-rule:evenodd;stroke:none;stroke-width:1px;stroke-linecap:butt;stroke-linejoin:miter;stroke-opacity:1" />
      <path
         id="path21360"
         d="M 354.5625,509.40625 C 347.31733,510.82464 341.77777,513.80246 338.90625,517.5625 C 341.16903,525.20672 348.20089,527.89908 356.53125,527.96875 C 355.54431,522.17816 354.88539,516.00975 354.59375,509.40625 C 354.58376,509.4082 354.57248,509.4043 354.5625,509.40625 z M 353.84375,534.5 C 340.36029,534.62179 329.02663,538.66386 323.125,543.3125 C 332.01173,556.86734 349.40137,560.67882 365.78125,557.75 C 362.50745,550.90929 359.78455,543.22525 357.84375,534.59375 C 356.4903,534.52749 355.15915,534.48812 353.84375,534.5 z "
         style="fill:black;fill-opacity:1;fill-rule:evenodd;stroke:none;stroke-width:1px;stroke-linecap:butt;stroke-linejoin:miter;stroke-opacity:1;display:inline" />
      <path
         sodipodi:nodetypes="ccccccccccccccccccsccccsccccscccccccsscsssscsscssssssccccscsscscccccssccccscccsscccccccccccccccccccccccccccccccccccccccccccccccc"
         id="path21367"
         d="M 459.65625,440.78125 C 452.66132,440.98158 444.27055,440.9663 435.3125,441.9375 L 432.6875,462.5625 C 436.06903,462.35141 439.55898,462.2902 443.25,462.59375 C 448.69726,454.68023 454.302,447.00919 459.65625,440.78125 z M 434.28125,442.0625 C 429.61804,442.60622 424.81238,443.40636 419.96875,444.6875 L 421.8125,464.21875 C 424.93801,463.43864 428.22439,462.92745 431.65625,462.65625 L 434.28125,442.0625 z M 419,444.96875 C 413.35732,446.53161 407.69283,448.74506 402.15625,451.84375 L 411.15625,467.875 C 414.22714,466.46011 417.46331,465.34178 420.84375,464.4375 L 419,444.96875 z M 362.78125,449.65625 C 362.31592,449.662 361.85845,449.66808 361.40625,449.6875 L 375.625,476.21875 C 375.76307,476.46037 375.67912,476.76818 375.4375,476.90625 C 375.19588,477.04432 374.88807,476.96037 374.75,476.71875 L 360.3125,449.75 C 356.58422,450.0071 353.32601,450.7352 350.5625,451.875 L 369.53125,479.9375 C 369.68658,480.1705 369.63925,480.50092 369.40625,480.65625 C 369.17325,480.81158 368.84283,480.733 368.6875,480.5 L 349.625,452.3125 C 346.73064,453.66002 344.43299,455.45142 342.75,457.65625 L 363.96875,482.9375 C 364.14134,483.15324 364.09074,483.45241 363.875,483.625 C 363.65927,483.79759 363.36009,483.77824 363.1875,483.5625 L 342.15625,458.5 C 340.14579,461.51629 339.20487,465.16322 339.40625,469.25 L 355.59375,490.625 C 354.16518,515.29978 357.32519,535.0374 363.375,550.8125 L 373.09375,541.90625 C 372.45348,541.13787 371.872,540.43024 371.21875,539.65625 C 371.08619,539.51798 371.05849,539.3046 371.125,539.125 C 371.19153,538.94538 371.34061,538.83106 371.53125,538.8125 C 371.7099,538.78575 371.88909,538.85742 372,539 C 378.47526,546.67209 384.22136,554.03191 390.4375,560.5625 C 390.45289,560.57866 390.48461,560.5776 390.5,560.59375 C 390.62861,560.64458 390.73042,560.74639 390.78125,560.875 C 390.78634,560.88031 390.77616,560.90094 390.78125,560.90625 C 393.75052,564.00217 396.88994,566.85087 400.21875,569.5 C 400.35154,569.48236 400.488,569.51154 400.59375,569.59375 C 400.69949,569.67599 400.76566,569.80445 400.78125,569.9375 C 400.78158,569.94791 400.78158,569.95834 400.78125,569.96875 C 408.34454,575.87064 417.17347,580.53248 428.8125,583.15625 C 428.84319,583.16317 428.87552,583.14936 428.90625,583.15625 C 429.01797,583.15168 429.12799,583.18469 429.21875,583.25 C 429.24229,583.25518 429.25769,583.27609 429.28125,583.28125 C 429.32541,583.29093 429.36201,583.30288 429.40625,583.3125 C 429.58608,583.35027 429.72905,583.48009 429.78125,583.65625 C 429.83345,583.83243 429.78647,584.02661 429.65625,584.15625 L 439.75,611.25 C 447.84864,612.80287 454.60228,613.30633 458.75,613.4375 C 447.61537,597.38501 437.10109,583.79292 423.78125,559.4375 C 411.73593,554.89192 400.63334,549.48311 392.625,541.34375 C 384.30489,532.88751 379.36543,521.47209 380.21875,505.1875 C 380.22563,504.96525 380.37844,504.77425 380.59375,504.71875 C 380.75184,504.67716 380.9067,504.70662 381.03125,504.8125 C 381.15581,504.91837 381.23433,505.08727 381.21875,505.25 C 380.37719,521.31004 385.19933,532.37857 393.34375,540.65625 C 401.39333,548.83753 412.72873,554.27386 425.09375,558.875 C 440.42515,558.14816 449.74752,548.72854 450.03125,530.375 L 462.41133,525.68544 L 449.53125,519.75 L 444.55314,514.5928 C 444.3782,514.4673 433.44269,513.09952 435.96875,507.90625 C 436.06293,507.71263 436.22246,507.57326 436.4375,507.5625 C 440.40812,507.36391 442.40865,512.15667 442.49524,512.23319 L 449.46621,517.97192 C 450.86017,498.23897 434.40219,495.09359 421.9375,494.96875 C 427.6862,486.2113 434.97639,474.68406 442.59375,463.5625 C 430.36926,462.51224 420.10909,464.66868 411.09375,468.90625 C 406.38378,471.12013 402.01877,473.92767 397.875,477.09375 C 397.8385,477.13136 397.79632,477.16299 397.75,477.1875 C 392.95422,480.86488 388.44026,485.0369 384.09375,489.5 C 383.98567,489.6767 383.76618,489.75645 383.5625,489.71875 C 383.35883,489.68106 383.22518,489.54741 383.1875,489.34375 C 383.14981,489.14008 383.22955,488.92058 383.40625,488.8125 C 384.97917,487.19739 386.59523,485.63166 388.21875,484.09375 L 379.84375,471.375 C 379.23591,472.16827 378.65715,472.97676 378.0625,473.8125 L 369.96875,450.0625 C 367.42686,449.75685 365.02315,449.62857 362.78125,449.65625 z M 401.25,452.3125 C 396.93831,454.8083 392.73002,457.87946 388.6875,461.625 L 397.71875,476.03125 C 401.64682,473.07176 405.7506,470.38172 410.1875,468.25 L 401.25,452.3125 z M 387.96875,462.3125 C 385.40398,464.75538 382.89469,467.48715 380.5,470.53125 L 388.9375,483.375 C 391.51016,480.9731 394.15541,478.71326 396.90625,476.59375 L 387.96875,462.3125 z M 373.75,542.65625 L 363.875,551.6875 C 363.8391,551.72988 363.79609,551.75357 363.75,551.78125 C 365.56653,556.3796 367.64183,560.62171 369.90625,564.5625 L 381.34375,551.78125 C 378.85974,548.82429 376.3296,545.76187 373.75,542.65625 z M 381.96875,552.5625 L 370.4375,565.46875 C 372.92273,569.68335 375.63702,573.52141 378.53125,577.03125 L 389.59375,561.15625 C 387.00306,558.43092 384.47268,555.52742 381.96875,552.5625 z M 390.34375,561.875 L 379.1875,577.84375 C 381.94086,581.10405 384.86289,584.08753 387.875,586.78125 L 399.53125,570.21875 C 396.29171,567.6354 393.236,564.86888 390.34375,561.875 z M 400.3125,570.84375 L 388.65625,587.4375 C 393.93754,592.05314 399.5057,595.86826 405.15625,599 L 408.375,576.28125 C 405.51378,574.62945 402.83504,572.8027 400.3125,570.84375 z M 409.28125,576.84375 L 406.09375,599.5 C 410.5121,601.88935 414.95656,603.88333 419.3125,605.53125 L 417.71875,580.90625 C 417.71352,580.86475 417.71352,580.82275 417.71875,580.78125 C 414.72227,579.61559 411.90855,578.30502 409.28125,576.84375 z M 418.71875,581.21875 L 420.34375,605.90625 C 426.79301,608.27578 433.0075,609.9028 438.625,611.03125 L 428.59375,584.09375 C 425.07852,583.30115 421.77387,582.35153 418.71875,581.21875 z "
         style="fill:black;fill-opacity:1;fill-rule:evenodd;stroke:none;stroke-width:1px;stroke-linecap:butt;stroke-linejoin:miter;stroke-opacity:1" />
      <path
         id="path23149"
         d="M 397.24249,476.8909 C 397.24249,476.84881 397.24249,476.80672 397.24249,476.8909 z "
         style="fill:black;fill-opacity:1;fill-rule:evenodd;stroke:black;stroke-width:1px;stroke-linecap:butt;stroke-linejoin:miter;stroke-opacity:1" />
      <path
         id="path23184"
         d="M 390.17142,560.92297 C 390.12933,560.92297 390.08724,560.92297 390.17142,560.92297 z "
         style="fill:black;fill-opacity:1;fill-rule:evenodd;stroke:black;stroke-width:1px;stroke-linecap:butt;stroke-linejoin:miter;stroke-opacity:1" />
      <path
         sodipodi:nodetypes="ccc"
         id="path25920"
         d="M 562.90963,189.47932 C 526.2916,273.32198 597.7599,314.23317 597.7599,314.23317 C 612.54718,267.49813 587.36778,216.84586 562.90963,189.47932 z "
         style="fill:black;fill-opacity:1;fill-rule:evenodd;stroke:none;stroke-width:1px;stroke-linecap:butt;stroke-linejoin:miter;stroke-opacity:1;display:inline" />
      <path
         id="path25922"
         d="M 520.5768,276.1962 C 558.04837,276.63173 576.73455,297.26266 586.32684,316.1337 C 572.91082,323.15266 500.1463,324.66616 462.3268,288.10245 C 485.5655,279.43976 504.7555,276.01231 520.5768,276.1962 z M 510.5768,289.35245 C 508.4161,289.35245 506.6706,291.09798 506.6706,293.2587 C 506.6706,295.41942 508.4161,297.1962 510.5768,297.1962 C 512.7376,297.19621 514.4831,295.41942 514.4831,293.2587 C 514.4831,291.09799 512.7376,289.35245 510.5768,289.35245 z M 545.54559,295.53995 C 543.38487,295.53995 541.63934,297.28548 541.63934,299.4462 C 541.63933,301.60692 543.38487,303.3837 545.54559,303.3837 C 547.7063,303.38371 549.45184,301.60692 549.45184,299.4462 C 549.45184,297.28549 547.70631,295.53995 545.54559,295.53995 z "
         style="fill:black;fill-opacity:1;fill-rule:evenodd;stroke:none;stroke-width:1px;stroke-linecap:butt;stroke-linejoin:miter;stroke-opacity:1;display:inline" />
      <path
         sodipodi:nodetypes="ccccccc"
         id="path25924"
         d="M 578.35809,307.85245 C 605.79307,322.71348 631.73803,357.29636 635.83604,389.10868 C 637.32352,400.18811 634.84006,408.90186 632.99202,419.88816 C 630.37045,423.92297 624.65439,419.64429 626.68756,415.61134 C 631.91158,394.04371 623.33941,359.83368 605.08728,337.61652 C 596.56339,327.70551 585.27856,320.37474 574.57684,313.10245 C 572.95313,310.55368 575.4416,307.16313 578.35809,307.85245 z "
         style="fill:black;fill-opacity:1;fill-rule:evenodd;stroke:none;stroke-width:3;stroke-linecap:round;stroke-linejoin:round;stroke-miterlimit:4;stroke-dasharray:none;stroke-opacity:1;display:inline" />
      <path
         sodipodi:nodetypes="cccccccc"
         id="path25926"
         d="M 701.45184,567.47745 C 707.38709,569.07033 702.63765,575.90378 701.41436,579.33943 C 686.30422,615.07921 664.6485,648.80236 634.76434,673.8837 C 629.7008,677.2005 626.42914,682.12947 619.79099,680.18351 C 616.15212,677.75004 619.54748,672.69819 623.13728,673.0547 C 638.16395,665.61657 646.19141,653.76059 656.85934,641.22908 C 674.56594,619.43315 688.01512,594.52858 698.45184,568.53995 C 699.20389,567.73091 700.35218,567.28937 701.45184,567.47745 z "
         style="fill:black;fill-opacity:1;fill-rule:evenodd;stroke:none;stroke-width:3;stroke-linecap:round;stroke-linejoin:round;stroke-miterlimit:4;stroke-dasharray:none;stroke-opacity:1;display:inline" />
      <path
         sodipodi:nodetypes="ccc"
         id="path25928"
         d="M 618.53926,215.38235 C 583.93065,297.35585 615.20483,337.34538 626.24667,347.81477 C 648.71252,310.0083 645.67598,242.92746 618.53926,215.38235 z "
         style="fill:black;fill-opacity:1;fill-rule:evenodd;stroke:none;stroke-width:1px;stroke-linecap:butt;stroke-linejoin:miter;stroke-opacity:1;display:inline" />
      <path
         sodipodi:nodetypes="ccc"
         id="path25930"
         d="M 670.95886,243.15021 C 631.17168,294.588 630.66014,359.04181 643.13055,385.04692 C 676.13212,370.99045 689.16701,305.69532 670.95886,243.15021 z "
         style="fill:black;fill-opacity:1;fill-rule:evenodd;stroke:none;stroke-width:1px;stroke-linecap:butt;stroke-linejoin:miter;stroke-opacity:1;display:inline" />
      <path
         id="path25932"
         d="M 721.13934,324.47745 C 714.52606,388.09399 674.35966,444.48348 648.85809,442.28995 C 637.28054,383.24912 694.03073,336.80809 721.13934,324.47745 z M 679.38934,387.7587 C 677.22862,387.75871 675.48309,389.50423 675.48309,391.66495 C 675.48308,393.82568 677.22862,395.60245 679.38934,395.60245 C 681.55005,395.60247 683.29559,393.82567 683.29559,391.66495 C 683.29559,389.50425 681.55006,387.7587 679.38934,387.7587 z "
         style="fill:black;fill-opacity:1;fill-rule:evenodd;stroke:none;stroke-width:1px;stroke-linecap:butt;stroke-linejoin:miter;stroke-opacity:1;display:inline" />
      <path
         sodipodi:nodetypes="ccc"
         id="path25934"
         d="M 754.86207,371.33351 C 729.89632,373.30701 662.24192,418.65367 662.21233,478.40879 C 695.39247,475.42375 743.96308,418.87862 754.86207,371.33351 z "
         style="fill:black;fill-opacity:1;fill-rule:evenodd;stroke:none;stroke-width:1px;stroke-linecap:butt;stroke-linejoin:miter;stroke-opacity:1;display:inline" />
      <path
         sodipodi:nodetypes="ccc"
         id="path25936"
         d="M 766.05796,421.18592 C 743.94935,420.838 675.22352,464.0418 670.19393,517.72549 C 712.83836,515.63331 755.15897,468.73103 766.05796,421.18592 z "
         style="fill:black;fill-opacity:1;fill-rule:evenodd;stroke:none;stroke-width:1px;stroke-linecap:butt;stroke-linejoin:miter;stroke-opacity:1;display:inline" />
      <path
         sodipodi:nodetypes="ccc"
         id="path25938"
         d="M 774.98653,476.45481 C 756.44934,475.74974 689.33065,510.38212 694.65821,581.56581 C 787.30264,535.18791 766.23039,484.53563 774.98653,476.45481 z "
         style="fill:black;fill-opacity:1;fill-rule:evenodd;stroke:none;stroke-width:1px;stroke-linecap:butt;stroke-linejoin:miter;stroke-opacity:1;display:inline" />
      <path
         sodipodi:nodetypes="ccc"
         id="path25940"
         d="M 801.4151,612.70482 C 783.77078,599.32119 690.40209,596.8107 670.3725,639.06582 C 683.01693,647.15221 771.05183,650.4285 801.4151,612.70482 z "
         style="fill:black;fill-opacity:1;fill-rule:evenodd;stroke:none;stroke-width:1px;stroke-linecap:butt;stroke-linejoin:miter;stroke-opacity:1;display:inline" />
      <path
         sodipodi:nodetypes="ccc"
         id="path25942"
         d="M 772.39725,665.2644 C 744.75293,648.48792 659.41996,633.83457 639.39037,676.08969 C 650.60623,691.67608 716.31969,698.70237 772.39725,665.2644 z "
         style="fill:black;fill-opacity:1;fill-rule:evenodd;stroke:none;stroke-width:1px;stroke-linecap:butt;stroke-linejoin:miter;stroke-opacity:1;display:inline" />
      <path
         id="path25944"
         d="M 598.70184,705.9462 C 645.12587,707.02215 684.35914,732.39462 700.88934,745.10245 C 672.24162,756.07434 642.38891,756.7337 616.63934,751.9462 C 615.30789,751.02134 613.92403,750.06868 612.42059,749.0712 C 603.74647,743.31621 592.35957,736.52563 579.51434,730.2587 C 576.90897,728.98759 574.25991,727.72382 571.54559,726.5087 C 580.76387,721.00286 589.93487,714.25612 598.70184,705.9462 z M 630.63934,727.22745 C 628.47863,727.22745 626.73309,728.97298 626.73309,731.1337 C 626.73309,733.29442 628.47862,735.0712 630.63934,735.0712 C 632.80006,735.07121 634.54559,733.29442 634.54559,731.1337 C 634.5456,728.97299 632.80006,727.22745 630.63934,727.22745 z M 569.57684,727.6962 C 572.80071,729.11202 575.97051,730.57093 579.04559,732.0712 C 591.84404,738.31532 603.18646,745.08861 611.82684,750.8212 C 615.73073,753.41129 619.05367,755.76487 621.73309,757.78995 C 638.59489,773.42606 651.04872,788.77396 656.04559,796.97745 C 588.62048,802.74487 538.0169,777.00356 512.5143,748.0712 C 528.88098,745.17199 549.25797,739.43461 569.57684,727.6962 z "
         style="fill:black;fill-opacity:1;fill-rule:evenodd;stroke:none;stroke-width:1px;stroke-linecap:butt;stroke-linejoin:miter;stroke-opacity:1;display:inline" />
      <path
         id="path25946"
         d="M 591.70184,579.9462 C 585.98142,621.9556 568.71679,641.52366 536.60809,647.0087 C 532.57913,611.14625 572.9861,585.66967 591.70184,579.9462 z M 571.17059,602.9462 C 569.00988,602.94619 567.26434,604.69173 567.26434,606.85245 C 567.26434,609.01316 569.00987,610.78995 571.17059,610.78995 C 573.33131,610.78995 575.07684,609.01317 575.07684,606.85245 C 575.07685,604.69173 573.33131,602.9462 571.17059,602.9462 z M 555.63934,620.6337 C 553.47863,620.63373 551.73309,622.37923 551.73309,624.53995 C 551.73309,626.7007 553.47862,628.47745 555.63934,628.47745 C 557.80006,628.47749 559.54559,626.70067 559.54559,624.53995 C 559.5456,622.37927 557.80006,620.6337 555.63934,620.6337 z "
         style="fill:black;fill-opacity:1;fill-rule:evenodd;stroke:none;stroke-width:1px;stroke-linecap:butt;stroke-linejoin:miter;stroke-opacity:1;display:inline" />
      <path
         sodipodi:nodetypes="ccc"
         id="path25948"
         d="M 536.12456,596.87327 C 507.0548,604.86961 494.1797,645.00616 508.3102,669.50439 C 528.80218,658.21097 536.97014,619.68977 536.12456,596.87327 z "
         style="fill:black;fill-opacity:1;fill-rule:evenodd;stroke:none;stroke-width:1px;stroke-linecap:butt;stroke-linejoin:miter;stroke-opacity:1;display:inline" />
      <path
         sodipodi:nodetypes="ccc"
         id="path25950"
         d="M 574.25782,651.67404 C 564.12837,651.8417 533.82821,645.25869 521.1897,678.09068 C 542.43923,677.90894 552.37496,680.80399 574.25782,651.67404 z "
         style="fill:black;fill-opacity:1;fill-rule:evenodd;stroke:none;stroke-width:1px;stroke-linecap:butt;stroke-linejoin:miter;stroke-opacity:1;display:inline" />
      <path
         sodipodi:nodetypes="ccc"
         id="path25952"
         d="M 477.1649,614.6772 C 465.7727,647.42228 482.4446,680.7403 491.7769,689.07609 C 508.4808,669.19637 494.4254,623.09903 477.1649,614.6772 z "
         style="fill:black;fill-opacity:1;fill-rule:evenodd;stroke:none;stroke-width:1px;stroke-linecap:butt;stroke-linejoin:miter;stroke-opacity:1;display:inline" />
      <path
         sodipodi:nodetypes="cccccc"
         id="path25954"
         d="M 540.57684,641.72745 C 545.27706,645.76055 534.82241,650.55098 532.81867,654.91909 C 521.1126,668.01101 507.6427,680.98028 495.9341,694.06993 C 491.0585,691.46692 498.7644,686.75194 501.5472,682.909 C 514.5549,669.24219 527.4586,655.37297 538.98309,640.2587 C 539.51434,640.74828 540.04559,641.23787 540.57684,641.72745 z "
         style="fill:black;fill-opacity:1;fill-rule:evenodd;stroke:none;stroke-width:1px;stroke-linecap:butt;stroke-linejoin:miter;stroke-opacity:1;display:inline" />
      <path
         id="path25956"
         d="M 669.82684,551.5087 C 664.19564,611.32853 644.20623,652.8543 620.76434,681.5712 L 578.29559,646.16495 C 604.25902,622.70596 619.8367,576.13464 616.79559,551.7587 L 669.82684,551.5087 z M 577.54559,646.85245 L 620.10809,682.3212 C 587.84642,721.42653 549.33163,736.47515 532.92059,741.5087 C 540.39237,732.56735 549.9125,726.85288 561.04559,720.47745 C 572.6263,713.84569 585.95501,706.48681 600.42059,694.03995 L 599.76434,693.28995 C 585.3813,705.66579 572.16807,712.96466 560.57684,719.60245 C 553.37161,723.72857 546.88158,727.70209 541.07684,732.3837 C 540.55938,729.94538 538.95991,728.34137 536.76434,727.47745 C 535.77133,727.08672 534.62495,726.86232 533.42059,726.6962 C 549.75821,713.91771 576.19071,706.59168 594.48309,691.41495 L 593.82684,690.6337 C 578.48343,703.36374 557.13741,710.56527 540.85809,720.41495 C 540.27938,718.7532 539.01237,717.51213 537.10809,716.78995 C 534.91392,715.95783 532.07797,715.60848 528.88934,715.47745 C 522.6691,715.22185 515.1991,715.79705 509.0768,715.6337 L 508.2956,689.3212 C 520.1878,688.25134 526.1342,685.65777 534.95184,679.28995 C 557.75186,676.20363 564.46819,665.12928 575.73309,650.1337 C 575.1,650.14418 574.39607,650.12559 573.60809,650.10245 C 574.9513,649.086 576.252,647.98969 577.54559,646.85245 z M 507.2956,689.41495 L 509.0768,747.22745 C 506.8086,747.62678 504.6145,747.95693 502.5143,748.2587 L 500.7331,689.78995 C 503.1117,689.69713 505.2915,689.57666 507.2956,689.41495 z M 499.7331,689.8212 L 501.5456,748.41495 C 497.0716,749.03702 493.0259,749.46773 489.5143,749.7587 L 489.9831,690.03995 C 493.6016,690.00227 496.7987,689.92323 499.7331,689.8212 z M 526.4831,716.41495 C 527.2821,716.42373 528.064,716.4461 528.82684,716.47745 C 531.96526,716.60641 534.75485,716.96537 536.76434,717.72745 C 538.59257,718.42079 539.63584,719.4652 540.04559,720.91495 C 537.15697,722.69797 534.4008,724.55923 531.92059,726.5712 C 530.84465,726.49092 529.75201,726.42787 528.57684,726.4462 C 522.4611,726.5416 515.253,727.67177 509.4518,727.60245 L 509.1081,716.6337 C 514.5323,716.77453 520.8903,716.35347 526.4831,716.41495 z M 528.60809,727.4462 C 529.75793,727.42826 530.79184,727.4931 531.82684,727.5712 L 531.98309,727.7587 C 532.06098,727.69391 532.15467,727.63571 532.23309,727.5712 C 533.79413,727.71252 535.2301,727.95881 536.38934,728.41495 C 538.39957,729.20594 539.70915,730.48343 540.13934,732.66495 L 540.92059,732.5087 C 537.4473,735.32538 534.14922,738.34273 531.26434,741.97745 L 531.29559,742.0087 C 523.7515,744.24869 516.5917,745.85577 510.0456,747.03995 L 509.4831,728.60245 C 515.4216,728.66706 522.6284,727.53948 528.60809,727.4462 z "
         style="fill:black;fill-opacity:1;fill-rule:evenodd;stroke:none;stroke-width:1px;stroke-linecap:butt;stroke-linejoin:miter;stroke-opacity:1;display:inline" />
      <path
         sodipodi:nodetypes="csssc"
         id="path25958"
         d="M 481.3203,685.62311 C 476.4049,685.62311 472.434,689.59401 472.434,694.50944 C 472.434,699.42487 476.4049,703.46686 481.3203,703.46686 C 486.2357,703.46688 490.2066,699.42487 490.2066,694.50944 C 490.2066,689.59404 486.2357,685.62311 481.3203,685.62311 z "
         style="fill:black;fill-opacity:1;fill-rule:evenodd;stroke:none;stroke-width:1px;stroke-linecap:butt;stroke-linejoin:miter;stroke-opacity:1;display:inline" />
      <path
         sodipodi:nodetypes="csssc"
         id="path25960"
         d="M 481.3402,702.94454 C 476.4248,702.94454 472.4539,706.91544 472.4539,711.83087 C 472.4539,716.7463 476.4248,720.78829 481.3402,720.78829 C 486.2556,720.78831 490.2266,716.7463 490.2266,711.83087 C 490.2266,706.91547 486.2557,702.94454 481.3402,702.94454 z "
         style="fill:black;fill-opacity:1;fill-rule:evenodd;stroke:none;stroke-width:1px;stroke-linecap:butt;stroke-linejoin:miter;stroke-opacity:1;display:inline" />
      <path
         sodipodi:nodetypes="csssc"
         id="path25962"
         d="M 481.5188,720.62311 C 476.6034,720.62311 472.6325,724.59401 472.6325,729.50944 C 472.6325,734.42487 476.6034,738.46686 481.5188,738.46686 C 486.4342,738.46688 490.4051,734.42487 490.4051,729.50944 C 490.4051,724.59404 486.4342,720.62311 481.5188,720.62311 z "
         style="fill:black;fill-opacity:1;fill-rule:evenodd;stroke:none;stroke-width:1px;stroke-linecap:butt;stroke-linejoin:miter;stroke-opacity:1;display:inline" />
      <path
         sodipodi:nodetypes="csssc"
         id="path25964"
         d="M 481.1617,738.03383 C 476.2462,738.03383 472.2753,742.00473 472.2753,746.92016 C 472.2753,751.83559 476.2462,755.87758 481.1617,755.87758 C 486.0771,755.8776 490.048,751.83559 490.048,746.92016 C 490.048,742.00476 486.0771,738.03383 481.1617,738.03383 z "
         style="fill:black;fill-opacity:1;fill-rule:evenodd;stroke:none;stroke-width:1px;stroke-linecap:butt;stroke-linejoin:miter;stroke-opacity:1;display:inline" />
      <path
         sodipodi:nodetypes="cccccccc"
         id="path25966"
         d="M 607.01434,453.22745 C 611.53675,455.85696 606.93755,459.12096 605.63093,462.25997 C 592.12679,478.83358 585.82325,503.62833 598.40965,522.47237 C 604.75032,532.25599 614.10104,538.27765 625.10809,540.3837 C 626.36884,546.6144 621.03448,546.13221 617.13426,544.9876 C 595.16582,539.70129 581.1217,515.17024 584.29051,493.1962 C 586.03837,477.42008 594.90646,463.29091 605.51434,451.8212 C 606.01434,452.28995 606.51434,452.7587 607.01434,453.22745 z "
         style="fill:black;fill-opacity:1;fill-rule:evenodd;stroke:none;stroke-width:1px;stroke-linecap:butt;stroke-linejoin:miter;stroke-opacity:1;display:inline" />
      <path
         sodipodi:nodetypes="cccsccccccssccssccccccsccccsccscc"
         id="path25968"
         d="M 614.99648,395.24977 C 648.06595,439.5715 670.24512,488.65786 669.04559,549.47745 L 652.26434,549.5712 C 652.76153,543.86595 652.58197,537.07074 651.10809,531.22745 C 649.60166,525.25513 646.66854,520.28637 641.67059,518.72745 C 640.21274,493.01506 626.76017,458.64158 614.76434,442.72745 L 613.98309,443.3212 C 625.72527,458.89883 639.09892,493.06675 640.63934,518.4462 C 637.61853,520.35594 635.69177,522.34999 634.17059,525.0087 C 633.18905,523.40391 632.16964,522.17679 631.13934,521.41495 C 630.42083,508.53523 626.08712,489.44408 620.13934,472.35245 C 617.15231,463.76886 613.78139,455.70337 610.23309,449.1962 C 606.68479,442.68903 603.00445,437.73782 599.29559,435.3837 L 598.76434,436.22745 C 602.18462,438.3984 605.84799,443.22785 609.35809,449.66495 C 612.86819,456.10205 616.2281,464.11957 619.20184,472.66495 C 625.13635,489.71846 629.47595,508.86202 630.17059,521.5712 C 625.67078,523.44568 622.51037,526.3028 620.23309,528.9462 C 621.04432,499.36731 616.16386,468.76119 582.17059,433.03995 L 614.99648,395.24977 z M 640.88934,519.4462 L 641.07684,519.5087 C 645.80786,520.79438 648.63828,525.52644 650.13934,531.47745 C 651.57961,537.18744 651.76207,543.94001 651.26434,549.5712 L 619.04559,549.72745 C 619.52528,543.35837 619.9505,536.98598 620.17059,530.5712 C 622.45916,527.71424 625.75303,524.43597 630.70184,522.41495 C 632.55753,523.89899 634.81905,527.61751 636.54559,532.47745 C 638.36253,537.59185 639.6232,543.8039 639.57684,549.53995 L 640.57684,549.53995 C 640.62445,543.64989 639.33573,537.3486 637.48309,532.1337 C 636.64514,529.77501 635.66089,527.75535 634.67059,525.97745 C 636.12963,523.2405 637.94892,521.3508 640.88934,519.4462 z "
         style="fill:black;fill-opacity:1;fill-rule:evenodd;stroke:none;stroke-width:1px;stroke-linecap:butt;stroke-linejoin:miter;stroke-opacity:1;display:inline" />
      <path
         sodipodi:nodetypes="ccc"
         id="path25970"
         d="M 572.3386,429.94212 C 562.74487,427.25264 534.94471,426.38392 519.8062,441.89448 C 532.42302,448.83765 561.3486,455.50064 572.3386,429.94212 z "
         style="fill:black;fill-opacity:1;fill-rule:evenodd;stroke:none;stroke-width:1px;stroke-linecap:butt;stroke-linejoin:miter;stroke-opacity:1;display:inline" />
      <path
         sodipodi:nodetypes="ccc"
         id="path25972"
         d="M 541.80288,420.22499 C 532.20915,416.46408 495.4804,416.66679 483.9133,433.78449 C 495.6986,438.2456 530.81288,445.78351 541.80288,420.22499 z "
         style="fill:black;fill-opacity:1;fill-rule:evenodd;stroke:none;stroke-width:1px;stroke-linecap:butt;stroke-linejoin:miter;stroke-opacity:1;display:inline" />
      <path
         sodipodi:nodetypes="ccc"
         id="path25974"
         d="M 528.14216,410.55915 C 524.6199,404.47681 490.2126,385.21524 464.5383,402.69008 C 473.2879,407.50833 493.9379,427.72481 528.14216,410.55915 z "
         style="fill:black;fill-opacity:1;fill-rule:evenodd;stroke:none;stroke-width:1px;stroke-linecap:butt;stroke-linejoin:miter;stroke-opacity:1;display:inline" />
      <path
         id="path25976"
         d="M 523.5456,406.78995 C 546.3862,414.12483 569.2814,421.65617 590.82684,432.2587 C 589.6951,439.65717 583.92293,434.00095 579.57684,432.5087 C 560.28393,423.92557 540.16914,417.39996 520.0768,410.9462 C 521.2007,409.38242 520.5132,404.69006 523.5456,406.78995 z "
         style="fill:black;fill-opacity:1;fill-rule:evenodd;stroke:none;stroke-width:1px;stroke-linecap:butt;stroke-linejoin:miter;stroke-opacity:1;display:inline" />
      <path
         id="path25978"
         d="M 558.54559,322.85245 C 574.59299,322.93582 590.74983,329.12204 602.70184,344.2587 C 586.59096,343.94787 570.24416,346.01781 556.98309,350.9462 C 556.97395,350.9496 556.96098,350.9428 556.95184,350.9462 C 543.62231,344.34573 530.21043,339.70182 516.8581,336.6337 C 528.12614,328.20174 543.27428,322.77311 558.54559,322.85245 z M 586.85809,351.78995 C 602.45846,352.03759 616.62791,359.6236 620.29559,378.3212 C 611.98326,377.5716 604.68646,377.66576 598.29559,378.4462 C 587.54934,369.29849 576.65866,361.73504 565.70184,355.5712 C 572.48523,353.04812 579.82851,351.67836 586.85809,351.78995 z M 501.0143,379.5712 C 510.04,380.30107 519.1625,381.80141 528.57684,385.4462 C 528.84391,392.05495 531.0072,399.54397 535.54559,407.97745 C 516.2497,399.7009 505.511,389.72061 501.0143,379.5712 z M 537.76434,389.66495 C 545.24843,393.71579 552.94626,399.39046 560.95184,407.35245 C 560.19844,410.29746 559.73758,413.37075 559.54559,416.53995 C 545.37249,407.64233 538.94266,398.35118 537.76434,389.66495 z "
         style="fill:black;fill-opacity:1;fill-rule:evenodd;stroke:none;stroke-width:1px;stroke-linecap:butt;stroke-linejoin:miter;stroke-opacity:1;display:inline" />
      <path
         id="path25982"
         d="M 570.17059,509.4462 C 577.41576,510.86459 582.95532,513.84241 585.82684,517.60245 C 583.56406,525.24667 576.5322,527.93903 568.20184,528.0087 C 569.18878,522.21811 569.8477,516.0497 570.13934,509.4462 C 570.14933,509.44815 570.16061,509.44425 570.17059,509.4462 z M 570.88934,534.53995 C 584.3728,534.66174 595.70646,538.70381 601.60809,543.35245 C 592.72136,556.90729 575.33172,560.71877 558.95184,557.78995 C 562.22564,550.94924 564.94854,543.2652 566.88934,534.6337 C 568.24279,534.56744 569.57394,534.52807 570.88934,534.53995 z "
         style="fill:black;fill-opacity:1;fill-rule:evenodd;stroke:none;stroke-width:1px;stroke-linecap:butt;stroke-linejoin:miter;stroke-opacity:1;display:inline" />
      <path
         sodipodi:nodetypes="ccccccccccccccccccsccccsccccscccccccsscsssscsscssssssccccscsscscccccssccccscccsscccccccccccccccccccccccccccccccccccccccccccccccc"
         id="path25984"
         d="M 465.0768,440.8212 C 472.0718,441.02153 480.4625,441.00625 489.4206,441.97745 L 492.0456,462.60245 C 488.6641,462.39136 485.1741,462.33015 481.4831,462.6337 C 476.0358,454.72018 470.4311,447.04914 465.0768,440.8212 z M 490.4518,442.10245 C 495.1151,442.64617 499.9207,443.44631 504.7643,444.72745 L 502.9206,464.2587 C 499.7951,463.47859 496.5087,462.9674 493.0768,462.6962 L 490.4518,442.10245 z M 505.7331,445.0087 C 511.3758,446.57156 517.0403,448.78501 522.5768,451.8837 L 513.5768,467.91495 C 510.506,466.50006 507.2698,465.38173 503.8893,464.47745 L 505.7331,445.0087 z M 561.95184,449.6962 C 562.41717,449.70195 562.87464,449.70803 563.32684,449.72745 L 549.10809,476.2587 C 548.97002,476.50032 549.05397,476.80813 549.29559,476.9462 C 549.53721,477.08427 549.84502,477.00032 549.98309,476.7587 L 564.42059,449.78995 C 568.14887,450.04705 571.40708,450.77515 574.17059,451.91495 L 555.20184,479.97745 C 555.04651,480.21045 555.09384,480.54087 555.32684,480.6962 C 555.55984,480.85153 555.89026,480.77295 556.04559,480.53995 L 575.10809,452.35245 C 578.00245,453.69997 580.3001,455.49137 581.98309,457.6962 L 560.76434,482.97745 C 560.59175,483.19319 560.64235,483.49236 560.85809,483.66495 C 561.07382,483.83754 561.373,483.81819 561.54559,483.60245 L 582.57684,458.53995 C 584.5873,461.55624 585.52822,465.20317 585.32684,469.28995 L 569.13934,490.66495 C 570.56791,515.33973 567.4079,535.07735 561.35809,550.85245 L 551.63934,541.9462 C 552.27961,541.17782 552.86109,540.47019 553.51434,539.6962 C 553.6469,539.55793 553.6746,539.34455 553.60809,539.16495 C 553.54156,538.98533 553.39248,538.87101 553.20184,538.85245 C 553.02319,538.8257 552.844,538.89737 552.73309,539.03995 C 546.25783,546.71204 540.51173,554.07186 534.29559,560.60245 C 534.2802,560.61861 534.24848,560.61755 534.23309,560.6337 C 534.10448,560.68453 534.00267,560.78634 533.95184,560.91495 C 533.94675,560.92026 533.95693,560.94089 533.95184,560.9462 C 530.98257,564.04212 527.8432,566.89082 524.5143,569.53995 C 524.3816,569.52231 524.2451,569.55149 524.1393,569.6337 C 524.0336,569.71594 523.9674,569.8444 523.9518,569.97745 C 523.9515,569.98786 523.9515,569.99829 523.9518,570.0087 C 516.3886,575.91059 507.5596,580.57243 495.9206,583.1962 C 495.8899,583.20312 495.8576,583.18931 495.8268,583.1962 C 495.7151,583.19163 495.6051,583.22464 495.5143,583.28995 C 495.4908,583.29513 495.4754,583.31604 495.4518,583.3212 C 495.4077,583.33088 495.3711,583.34283 495.3268,583.35245 C 495.147,583.39022 495.004,583.52004 494.9518,583.6962 C 494.8996,583.87238 494.9466,584.06656 495.0768,584.1962 L 484.9831,611.28995 C 476.8845,612.84282 470.1308,613.34628 465.9831,613.47745 C 477.1177,597.42496 487.632,583.83287 500.9518,559.47745 C 512.9972,554.93187 524.0998,549.52306 532.10809,541.3837 C 540.4282,532.92746 545.36766,521.51204 544.51434,505.22745 C 544.50746,505.0052 544.35465,504.8142 544.13934,504.7587 C 543.98125,504.71711 543.82639,504.74657 543.70184,504.85245 C 543.57728,504.95832 543.49876,505.12722 543.51434,505.28995 C 544.3559,521.34999 539.53376,532.41852 531.38934,540.6962 C 523.3398,548.87748 512.0044,554.31381 499.6393,558.91495 C 484.3079,558.18811 474.9856,548.76849 474.7018,530.41495 L 462.3218,525.72539 L 475.2018,519.78995 L 480.18,514.63275 C 480.3549,514.50725 491.2904,513.13947 488.7643,507.9462 C 488.6702,507.75258 488.5106,507.61321 488.2956,507.60245 C 484.325,507.40386 482.3244,512.19662 482.2379,512.27314 L 475.2669,518.01187 C 473.8729,498.27892 490.3309,495.13354 502.7956,495.0087 C 497.0469,486.25125 489.7567,474.72401 482.1393,463.60245 C 494.3638,462.55219 504.624,464.70863 513.6393,468.9462 C 518.3493,471.16008 522.7143,473.96762 526.8581,477.1337 C 526.8946,477.17131 526.9368,477.20294 526.9831,477.22745 C 531.77887,480.90483 536.29283,485.07685 540.63934,489.53995 C 540.74742,489.71665 540.96691,489.7964 541.17059,489.7587 C 541.37426,489.72101 541.50791,489.58736 541.54559,489.3837 C 541.58328,489.18003 541.50354,488.96053 541.32684,488.85245 C 539.75392,487.23734 538.13786,485.67161 536.51434,484.1337 L 544.88934,471.41495 C 545.49718,472.20822 546.07594,473.01671 546.67059,473.85245 L 554.76434,450.10245 C 557.30623,449.7968 559.70994,449.66852 561.95184,449.6962 z M 523.4831,452.35245 C 527.7948,454.84825 532.00307,457.91941 536.04559,461.66495 L 527.0143,476.0712 C 523.0863,473.11171 518.9825,470.42167 514.5456,468.28995 L 523.4831,452.35245 z M 536.76434,462.35245 C 539.32911,464.79533 541.8384,467.5271 544.23309,470.5712 L 535.79559,483.41495 C 533.22293,481.01305 530.57768,478.75321 527.8268,476.6337 L 536.76434,462.35245 z M 550.98309,542.6962 L 560.85809,551.72745 C 560.89399,551.76983 560.937,551.79352 560.98309,551.8212 C 559.16656,556.41955 557.09126,560.66166 554.82684,564.60245 L 543.38934,551.8212 C 545.87335,548.86424 548.40349,545.80182 550.98309,542.6962 z M 542.76434,552.60245 L 554.29559,565.5087 C 551.81036,569.7233 549.09607,573.56136 546.20184,577.0712 L 535.13934,561.1962 C 537.73003,558.47087 540.26041,555.56737 542.76434,552.60245 z M 534.38934,561.91495 L 545.54559,577.8837 C 542.79223,581.144 539.8702,584.12748 536.85809,586.8212 L 525.2018,570.2587 C 528.44138,567.67535 531.49709,564.90883 534.38934,561.91495 z M 524.4206,570.8837 L 536.07684,587.47745 C 530.79555,592.09309 525.2274,595.90821 519.5768,599.03995 L 516.3581,576.3212 C 519.2193,574.6694 521.8981,572.84265 524.4206,570.8837 z M 515.4518,576.8837 L 518.6393,599.53995 C 514.221,601.9293 509.7765,603.92328 505.4206,605.5712 L 507.0143,580.9462 C 507.0196,580.9047 507.0196,580.8627 507.0143,580.8212 C 510.0108,579.65554 512.8245,578.34497 515.4518,576.8837 z M 506.0143,581.2587 L 504.3893,605.9462 C 497.9401,608.31573 491.7256,609.94275 486.1081,611.0712 L 496.1393,584.1337 C 499.6546,583.3411 502.9592,582.39148 506.0143,581.2587 z "
         style="fill:black;fill-opacity:1;fill-rule:evenodd;stroke:none;stroke-width:1px;stroke-linecap:butt;stroke-linejoin:miter;stroke-opacity:1;display:inline" />
      <path
         id="path25986"
         d="M 527.4906,476.93085 C 527.4906,476.88876 527.4906,476.84667 527.4906,476.93085 z "
         style="fill:black;fill-opacity:1;fill-rule:evenodd;stroke:black;stroke-width:1px;stroke-linecap:butt;stroke-linejoin:miter;stroke-opacity:1;display:inline" />
      <path
         id="path25988"
         d="M 534.56167,560.96292 C 534.60376,560.96292 534.64585,560.96292 534.56167,560.96292 z "
         style="fill:black;fill-opacity:1;fill-rule:evenodd;stroke:black;stroke-width:1px;stroke-linecap:butt;stroke-linejoin:miter;stroke-opacity:1;display:inline" />
      <path
         id="path26027"
         d="M 788.85045,548.90569 C 799.24525,548.94704 808.75189,551.02449 816.3192,555.24944 C 794.34878,594.93741 727.7538,612.89387 696.53795,607.84319 C 711.59966,570.15958 754.8941,548.77062 788.85045,548.90569 z M 772.60045,566.37444 C 770.43973,566.37442 768.6942,568.11997 768.6942,570.28069 C 768.69419,572.44139 770.43973,574.21819 772.60045,574.21819 C 774.76116,574.21818 776.5067,572.44141 776.5067,570.28069 C 776.5067,568.11996 774.76117,566.37444 772.60045,566.37444 z M 739.72545,581.71819 C 737.56473,581.7182 735.8192,583.46372 735.8192,585.62444 C 735.81919,587.78517 737.56473,589.56194 739.72545,589.56194 C 741.88616,589.56196 743.6317,587.78516 743.6317,585.62444 C 743.6317,583.46374 741.88617,581.71819 739.72545,581.71819 z "
         style="fill:black;fill-opacity:1;fill-rule:evenodd;stroke:none;stroke-width:1px;stroke-linecap:butt;stroke-linejoin:miter;stroke-opacity:1;display:inline" />
    </g>
  </g>
</svg>
