<?xml version="1.0" encoding="utf-8"?>
<!-- Generator: Adobe Illustrator 18.0.0, SVG Export Plug-In . SVG Version: 6.00 Build 0)  -->
<!DOCTYPE svg PUBLIC "-//W3C//DTD SVG 1.1//EN" "http://www.w3.org/Graphics/SVG/1.1/DTD/svg11.dtd">
<svg version="1.1" id="Layer_1" xmlns="http://www.w3.org/2000/svg" xmlns:xlink="http://www.w3.org/1999/xlink" x="0px" y="0px"
	 viewBox="0 0 1400 980" enable-background="new 0 0 1400 980" xml:space="preserve">
<g>
	<rect fill="#FFFFFF" width="1400" height="980"/>
	<g>
		<g>
			<path d="M919.8,503.7c-0.9-1.9-2-3.7-3.2-5.3c0.3-0.3,0.5-0.8,0.6-1.3c1.2-6-1-10.9-4.3-15.4c0.2-0.4,0.3-0.8,0.3-1.3
				c-0.4-9.7-6.1-19.7-14.1-25.9c0-0.2,0-0.4,0-0.6c-1-5.6-3.2-10.6-6.5-15.3c-1.1-1.6-3.2-4.2-5.4-5.9c17.1-24.9,22.6-57.1,7.4-85
				c-9.5-17.4-27.8-28.8-47.3-30.9c-9.7-1-19.8,1.3-28.3,5.9c-6.7,3.6-11.6,8.4-15.4,14.4c-7.9-3-15.9-5.6-24-7.8
				c-0.1,0-0.1,0-0.2-0.1c-0.4-0.1-0.7-0.2-1.1-0.3c-5.9-1.6-11.9-3-17.9-4.2c-13.9-2.9-28.2-4.1-42.4-4.4
				c-16.9-0.4-33.9,0.9-50.5,4c-7.8,1.5-15.6,3.2-23.3,5.5c-7.3,2.1-14.6,4.5-21.7,7.2c-3.8-5.9-8.7-10.5-15.4-14.4
				c-8.4-4.9-18.7-6.5-28.3-5.9c-19.8,1.4-37.5,14-47.3,30.9c-15.9,27.3-9.7,60,7.5,85c-1.9,1.5-3.6,3.5-4.7,4.9
				c-3.7,4.8-6.2,10.3-7.3,16.3c0,0.2,0,0.4,0,0.6c-8,6.3-13.7,16.2-14.1,25.9c0,0.5,0.1,0.9,0.3,1.2c-3.3,4.5-5.5,9.6-4.2,15.5
				c0.1,0.5,0.3,1,0.6,1.3c-1.2,1.7-2.2,3.4-3.2,5.3c-3.7,7.6-5,19.7,1.5,26.1c0.3,0.3,0.7,0.6,1,0.8c-0.6,2.8-1,5.8-0.9,8.9
				c0.2,8.6,5.6,18.2,14.6,20c0.2,0,0.4,0.1,0.7,0.1c0.5,5.8,2.1,11.5,4.8,17c0.8,1.6,2.5,1.3,3.5,0.3c16.1-7.1,33.9,1.9,48.4,9.2
				c15.4,7.8,29.9,17.4,43.2,28.5c13.4,11.1,25.3,23.3,40.9,31.5c15.1,7.9,31.7,12.4,48.1,16.8c0,0,0,0,0,0c0.2,0.1,0.5,0.1,0.8,0.1
				c0.1,0,0.2,0,0.3,0c0.1,0,0.2,0,0.3,0c0.3,0,0.5-0.1,0.8-0.1c0,0,0,0,0,0c15.8-4.2,31.5-8.7,46.3-15.9
				c15.8-7.7,28.1-19.8,41.2-31.2c13.1-11.3,27.7-20.8,42.9-28.8c14.7-7.7,33.6-17.4,50.1-10c0.9,1,2.7,1.3,3.5-0.3
				c2.6-5.5,4.2-11.2,4.8-17c0.2,0,0.4,0,0.7-0.1c9.4-1.9,13.7-11.3,14.6-20c0.3-3.1,0-6.1-0.6-9c0.3-0.2,0.5-0.4,0.8-0.6
				C924.8,523.3,923.5,511.3,919.8,503.7z M637.9,617.2c-2-1.8-4-3.5-6-5.3c-0.3-1-0.7-2-1.2-3c-1.8-3.5-2.2-7.3-3.9-10.8
				c-3.6-7.6-10.3-12-11.6-20.9c-1.2-8.5-9.4-10.6-16.6-13.5c-3.8-2.9-7.6-6-11.1-9.3c-4.4-4.3-8.7-8.8-13.7-12.4
				c-8-5.7-20.3-8.7-28.5-1.9c0,0,0,0,0,0c-0.8-0.2-1.3,0.9-0.6,1.3c2.8,1.4,5.3,3,7.4,4.8c-1-0.6-2-1.2-2.9-1.7
				c-0.2-0.1-0.5-0.1-0.7-0.1c-2.8-1.7-6.1-2.6-9.7-2.3c-0.6,0.1-1,0.9-0.3,1.2c1.7,0.8,3.4,1.8,5,2.9c-2.5-0.2-5.1,0.3-7.1,1.2
				c-0.1,0.1-0.1,0.3,0,0.3c1.4,0.2,2.7,0.6,4,1.1c-6.1,0.7-11.2,4.9-12.9,10.5c-0.9-7.8,0-15.8,2.3-23.4c0.3-1-1.1-1.5-1.6-0.7
				c-3.2,5.8-4.8,12-5.1,18.2c-15-11.7-7.9-30.1-0.6-44.9c0.6-1.3-1.1-2.3-1.9-1.1c-3.3,4.7-6.4,9.4-8.7,14.4
				c-1.1-2.2-1.9-4.3-2.2-7c-0.4-4.6,1.3-9.2,3.5-13.2c3.8-7,10.3-12.7,16.1-18.1c0.9-0.8-0.3-2.4-1.3-1.7
				c-4.8,3.3-9.5,6.6-13.5,10.6c0.4-6.4,6.5-12.2,10.6-16.5c4.3-4.6,9.2-8.6,13.6-13c0.7-0.7,0-2.3-1.1-1.9
				c-6.5,2.7-12.2,7.3-17.3,12.3c1.4-4.2,3.3-8.2,6.3-11.9c4.2-5.3,10.1-9.5,15.8-13.1c0.2-0.1,0.1-0.5-0.1-0.4
				c-3.2,0.3-6.4,1.2-9.3,2.7c1.3-3.6,3.1-7,5.6-10c0.9-1.2,2.4-2.4,3.7-3.7c6.1,8,13.4,15,21.4,20.6c4.2,3,9.5-3.8,5.5-7.2
				c-5.8-4.9-11.3-10-16.2-15.6c-4.4-9.9,1.4-22.6,13.3-23.3c14.9-0.8,18.1,13.1,19.8,24.8c0.8,5.8,1.9,11.3,4.4,16.6
				c2.9,6.1,9,9.8,12.8,15.2c6.9,9.9,4.2,24.9,5.8,36.3c1.9,13.5,11.2,21.2,20.6,29.9c6.3,5.8,9.8,12.6,7.9,21.2
				c-1.5,6.7-3.8,13-4.6,19.8C631.7,588.8,632.8,604,637.9,617.2z M640.1,508.8c-5.9-0.3-10.6-2.5-14-6c-1.4-2.1-2.6-4.4-3.5-6.9
				c-1.4-3.9-1.5-7.8-2-11.8c3.4-1.6,6.3-3.9,10.1-4.9c5.4-1.4,11.3-0.6,16.3,1.5c7.4,3.2,13,9.8,16.8,16.8
				C657.7,505.2,650.1,509.3,640.1,508.8z M769.7,630.6c-0.5,0.5-0.7,1.1-0.6,1.7c-1.3,0.9-2.6,1.8-4,2.6
				c-15.8,9.9-34.2,14.8-52,19.6c-17.3-4.7-34.6-9.6-50.3-18.6c-1.9-1.1-3.8-2.3-5.7-3.6c0.1-0.6,0-1.3-0.6-1.8
				c-23.7-24.4,0.5-53.3,12.6-76.7c6.1-11.8,9.5-24.6,7.4-37.9c-2.1-13.4-7.2-26-9.8-39.2c-2.9-15,4.3-26.6,10.4-39.7
				c5.1-10.8,5.7-21.7,3.2-33.3c-2.7-12.6-11.2-23.2-11.8-36.4c-0.6-14,10.6-27,19.9-36.4c6.5-0.8,13-1.3,19.6-1.6
				c1.5-0.1,3-0.1,4.5-0.1c1.9,0,3.7,0.1,5.6,0.1c6.5,0.2,13,0.7,19.4,1.5c9.2,9.3,19.2,21.2,20,34.8c0.7,13.1-8,24.4-11.3,36.5
				c-3.1,11.3-2.6,22.7,2,33.4c5.7,13.3,13.5,24.3,11.4,39.5c-1.8,13.3-7.5,26-9.8,39.2c-2.3,13.4,0.5,25.7,6.2,37.9
				c6.5,13.8,16.3,25.6,21.2,40.3C782,606.5,780.2,619.9,769.7,630.6z M762.5,497.6c3.9-7.1,9.5-13.1,16.8-16.8
				c4.5-2.2,9.8-2.6,14.7-1.9c4.6,0.7,7.8,3.3,11.7,5.2c-0.5,4-0.5,7.9-2,11.8c-1,2.6-2.3,4.9-3.7,7.1c-2.7,2.6-6.3,4.5-10.8,5.3
				C778.3,510.4,769.3,506,762.5,497.6z M914.4,521.7c-2.5-5-5.7-9.8-8.8-14.2c-0.8-1.2-2.6-0.2-1.9,1.1
				c7.4,14.8,14.4,33.2-0.6,44.9c-0.3-6.2-1.9-12.4-5.1-18.2c-0.5-0.9-1.9-0.3-1.6,0.7c2.3,7.6,3.2,15.6,2.3,23.4
				c-1.7-5.6-6.8-9.8-12.9-10.5c1.3-0.5,2.7-0.9,4-1.1c0.1,0,0.2-0.2,0-0.3c-2-1-4.6-1.4-7.1-1.2c1.6-1.1,3.3-2.1,5-2.9
				c0.6-0.3,0.2-1.1-0.3-1.2c-3.6-0.4-6.9,0.5-9.7,2.3c-0.2-0.1-0.4-0.1-0.7,0.1c-1,0.5-2,1.1-2.9,1.7c2.2-1.9,4.6-3.5,7.4-4.8
				c0.8-0.4,0.2-1.5-0.6-1.3c0,0,0,0,0,0c-7.9-6.6-18.7-3.8-26.9,0.9c-5.3,3-9.6,7.7-13.9,12c-4,3.9-8.3,7.5-12.7,10.9
				c-6.5,2.6-13.5,4.3-15.9,11.7c-1.3,4.1-1.7,7.7-4.1,11.5c-2.1,3.3-4.9,6.1-7,9.4c-2.2,3.4-2.4,7.1-4.1,10.8
				c-0.7,1.5-1.2,2.9-1.8,4.3c-2.1,1.8-4.2,3.6-6.2,5.4c4.8-12.5,6-26.7,4.8-39.2c-0.6-6.8-2.6-13.4-4.4-20
				c-2.4-8.7-0.1-15.3,6.1-21.8c4.7-4.9,10.2-8.8,14.5-14c3.8-4.5,5.9-9.8,7.2-15.5c2.6-12-0.4-25.3,5.3-36.5
				c3-5.9,9.2-9.7,12.8-15.2c3.1-4.8,4.1-10.8,5-16.4c1.9-12.3,3.6-25.2,18.6-26.5c12.9-1.1,19.2,13.2,14.5,23.5
				c-4.9,5.5-10.4,10.6-16,15.3c-4,3.3,1.3,10.1,5.5,7.2c8.1-5.7,15.3-12.7,21.4-20.6c1.3,1.3,2.8,2.5,3.7,3.6
				c2.6,2.9,4.4,6.4,5.6,10c-3-1.4-6.1-2.4-9.4-2.7c-0.3,0-0.3,0.3-0.1,0.4c5.8,3.7,11.4,7.9,15.8,13.1c3.1,3.6,4.9,7.6,6.3,11.9
				c-5-5-10.9-9.5-17.4-12.2c-1.1-0.5-1.8,1.1-1.1,1.9c4.4,4.4,9.2,8.5,13.6,13c4.1,4.2,10.2,10.1,10.6,16.4c-4-4-8.7-7.3-13.5-10.6
				c-1-0.7-2.2,0.9-1.3,1.7c5.9,5.5,11.9,11.2,16.1,18.1c2.1,3.5,3.3,7.5,3.5,11.5C916.6,516.5,915.7,519.1,914.4,521.7z"/>
			<path d="M625.9,483.4c-0.2,0-0.5,0.1-0.7,0.3c-1.6,1.9-2.2,4.1-1.9,6.2c-0.3,5.3,3.8,11.3,7.9,14.2c3.8,2.7,8.2,3.3,12.4,2.5
				c1.9,0,3.9-0.5,5.8-1.1c2.7-0.8,7.3-3.1,9-6c0.8-0.5,1.3-1.5,0.9-2.5C654.1,483.3,639,477,625.9,483.4z M635.8,490.1
				c-1.3-0.3-2.2-1.7-2.3-2.9c-0.1-1.2,0.8-2.4,1.6-3.4c1.8,0.1,3.5,0.5,5.2,1c0,0.1,0.1,0.2,0.1,0.2
				C642,487.9,638.4,490.8,635.8,490.1z"/>
			<path d="M803.2,489.7c0.2-2-0.4-4.1-2-6c-0.2-0.2-0.5-0.3-0.7-0.3c-13.2-6.4-28.2-0.1-33.4,13.6c-0.4,1.1,0.1,2,0.9,2.5
				c1.6,2.9,6.3,5.1,9,6c1.9,0.6,4,1.1,5.9,1.1c3.7,0.6,7.4,0.2,10.9-1.7C798.6,502.3,803.7,495.6,803.2,489.7z M791.2,489.9
				c-2.7,1.7-6.8-1.9-5.2-4.8c0-0.1,0.1-0.2,0.1-0.2c1.7-0.5,3.4-0.9,5.2-1C792.7,485.8,793.7,488.2,791.2,489.9z"/>
			<path d="M740.5,578c-6.7-4.9-14.3-8.3-22.5-9.5c-5.3-0.8-13.1-0.8-18.1,2.2c-8.8,2.1-17.6,7.3-24.1,12.9
				c-6.9,5.9-13.5,18.3-11.4,27.6c2.3,10.6,6.3,18.6,15.1,25.3c4.6,3.5,10,5.5,15.5,6.9c0.6,0.2,1.2,0.3,1.8,0.5
				c8.2,4.2,20.6,2.8,28.8,1.6c16.4-2.5,30.5-12.9,32.9-29.9c1.1-7.8,1.4-13.7-2.3-20.9C752.7,587.9,746.6,582.4,740.5,578z"/>
		</g>
		<path d="M447.2,513.4c-0.3-0.8-1-1.4-1.9-1.5c-2.9-0.3-5.7-0.1-8.6,0.4c-0.3-0.4-0.5-0.7-0.8-1.1c-12.4-16-30.4-29.9-49.2-38.4
			c-3.2-3.3-6.8-6-11.5-7.8c-13.2-5-26.7-2.9-40.2-0.5c-16.2-12.1-35.3-20.6-55.1-23.2c-33.6-29.6-81.1-37.1-122.7-19.6
			c-33.9,14.3-72,53.7-60.4,92.6c-6.5,17-18.9,32.5-24.7,49.6c-6.9,20.4,0.4,46.1,18.2,58.8c0.5,0.4,1.1-0.3,0.8-0.8
			c-0.3-0.6-0.6-1.1-1-1.6c0.3-0.3,0.4-0.8,0.3-1.4c-1.9-11.9,7-20.5,14.5-28.4c5.5-5.8,10.2-12.4,13.1-19.9
			c2.6-6.7,4.1-14,4.2-21.3c2.6,3.7,5.6,7.2,8.4,10.5c8.9,10.4,17,20.1,22.2,32.9c4.7,11.6,8.5,23.7,17.9,32.5c4,3.8,9.5,6.4,15.1,7
			c3.5,1.7,7.8,2.5,11.7,3.3c11.4,2.5,21.5,5.3,30.9,12.5c0.4,0.3,0.9-0.3,0.7-0.7c0,0,0,0,0,0c0.6-1.6,0.7-3.4,0.4-5.2
			c1.2,0.9,2.3,1.9,3.4,3c0.3,0.3,0.8,0.1,1-0.2c0.3,0,0.6-0.1,0.6-0.5c0.3-1.6,0.3-3.3,0-5c0.9,0.6,1.8,1.5,2.8,1.9
			c0.2,0.3,0.5,0.4,0.9,0.3c0.2,0,0.5-0.2,0.5-0.4c0-0.1,0-0.1,0-0.2c3.5-5.2-1.4-12.1-5.1-15.8c-7-6.9-18.4-9-22.3-18.6
			c0.1-4.9-0.3-9.8-1.4-14.6c3.9,2.6,8,4.9,12.2,7.1c5.7,7.5,12.6,13.9,21.5,17.9c3.1,1.4,6.2,2.3,9.5,2.9c4.8,3.1,9.1,6.7,13.1,11
			c4.9,5.3,7.5,12.2,12.6,17.4c10.3,10.4,28.1-2.5,37.8,8.8c0.2,0.2,0.4,0.3,0.6,0.3c0.3,0.5,1.2,0.5,1.5-0.1
			c0.3-0.7,0.5-1.5,0.6-2.2c0.2,0.4,0.7,0.4,1,0.2c0.1,0,0.1,0,0.2-0.1c0.8-0.8,1.2-1.9,1.3-3c0.2,0,0.3,0,0.4-0.2
			c0.8-2.1,0.4-4.3-0.7-6.1c-1.6-4.9-7.2-8.7-12.1-10.1c0.1-0.1,0.1-0.2,0.2-0.2c7.7-10.9,17.7-19.2,28.1-27.2
			c4.3-0.7,8.6-1.1,12.9-1.3c5.9,4.2,11.4,8.8,16.6,13.9c3.4,3.3,6.5,6.9,9.5,10.5c4.4,5.1,12.9,13.1,9.7,20.2
			c-0.3,0.6-0.3,1.4,0.1,1.9c-0.1,1,0.4,2.1,1.6,2.5c2.4,1,4.8,2,7.1,3.3c1,0.6,1.8,1.3,2.9,1.8c1,0.4,2.2,0.6,3.2,1.2
			c0.6,0.4,1.4-0.4,1-1c-0.7-1.2-1-2.4-1.9-3.6c-0.3-0.3-0.6-0.6-0.9-0.9c0.1,0,0.2,0.1,0.2,0.1c2.1,1.3,3.5,3.1,5.5,4.5
			c0.6,0.4,1.3-0.1,1.3-0.8c0-1.3-0.6-2.7-1.3-3.9c1.2,1.2,2.3,2.4,3.6,3.7c0.1,0.1,0.4,0,0.4-0.2c0.2-1.7-0.2-3.3-1-4.6
			c0.3-0.2,0.5-0.5,0.4-0.9c-0.8-2.4-2.5-4.5-4.6-5.9c0-0.4-0.1-0.8-0.4-1.2c-0.4-0.5-0.7-1.1-1-1.7c-0.1-0.1-0.1-0.2-0.2-0.4
			c0-0.1,0-0.2,0-0.4c0.3-8.1,1.8-16.2,2.2-24.4c1.7,0.6,3.4,0.9,5.3,1c4,0.2,8.6-0.6,11.1-4.2c3.1-4.6,0.7-8.2,0-12.6
			c2.8-3.4,5.1-6.6,9-9.3c4.7-3.3,8.9-6.5,12.1-11.4c4.8-7.4,4.3-16.9,3.3-25.8c0.6-4.8,0.9-9.5,0.8-14.3
			C450.4,536.3,453.7,521,447.2,513.4z"/>
		<path d="M627.6,816.1c-16.6-11-31.9-35-51.9-43.1c-1.3-2.5-2.7-4.9-4.3-7c-0.3-0.4-0.9-0.6-1.4-0.5c-0.3,0-0.6,0-0.9,0.3
			c-1.7,1.4-3.2,3-4.6,4.6c-1.9-0.1-3.8-0.1-5.8,0.1c-2.8-3.6-6-6.9-9.4-9.7c-0.3-1.1-1.4-1.9-2.6-1.2c-3.1,2.1-5.9,4.7-8.3,7.7
			c-19.8-5.3-37.2-15.7-56.2-23.2c-23.5-9.3-49-7.5-73.7-6.7c-25.6,0.9-51.3,1.7-76,9.2c-15.3,4.7-32.6,12.7-44.5,24.6
			c-3.5,2.2-7,4.3-10.4,6.1c-9.1,4.7-19.8,5.1-29.6,6.9c-7.7,1.4-14.8,4.6-21.4,8.8c-12.9,8.2-23.1,20.2-34.7,30.1
			c-16.9,14.3-38.8,18.8-59.2,8.8c-1.2-0.6-2.3,1.2-1.2,1.9c1.8,18.9,22.5,33.5,38.5,39.7c21.8,8.4,48.9,4.6,70.3-4.3
			c-0.8,7.9-2,15.4-5.5,22.9c-6.8,14.6-17.8,26.9-19.2,43.5c0,0,0,0.1,0,0.1c-1.3,3,0.6,6.6,3.9,7.9c2.8,1.1,5.6,0.8,8.6,0.8
			c4.4-0.1,7.9,1.9,11.7,3.4c0.4,0.6,1.5,0.5,1.8-0.3c0.3-0.7,0.3-1.6,0.2-2.4c0.2,0.1,0.5,0.2,0.7,0.3c1.6,0.6,3,1.6,4.6,2.3
			c0.3,0.4,0.9,0.5,1.2,0c0.6-1.1,0.8-2.3,0.6-3.5c1.4,0.5,2.8,1,4.2,1.6c0.4,0.2,0.7-0.3,0.7-0.7c0.2-0.1,0.3-0.3,0.4-0.6
			c0.1-1.6,0.2-2.7-0.5-4.2c-0.2-0.5-0.5-0.9-0.8-1.4c0.2,0.1,0.4,0.2,0.6,0.3c0.6,0.3,1.2-0.4,0.7-0.9c-0.2-0.2-0.3-0.3-0.5-0.5
			c0,0,0,0,0-0.1c-1.2-1.4-2.9-2.6-4-4.1c-1.2-1.7-1.9-3.6-3.5-5.1c0.1-0.2,0.2-0.5,0.3-0.8c3.6-16,20.6-21,34.5-24.6
			c5.7-1.5,11.1-3.2,16.2-5.5c-1.7,10.7,0.2,21.6,3.2,32.1c-0.2,1.2,0.5,2.5,2,2.3c3.5-0.4,6.9-0.8,10.4-0.9c4-0.1,8,0.5,12,0.2
			c0.3,0,0.5-0.3,0.4-0.5c0.3-0.8,0.3-1.5,0.3-2.3c0.1,0,0.1,0,0.2,0c1.2,0,2.5,0.1,3.7,0c0.1,0,0.2,0.1,0.4,0.1
			c0.4,0.1,0.9-0.3,0.7-0.7c-0.9-2.5-3.9-3.9-6.3-4.8c-0.4-0.2-0.9-0.3-1.4-0.5c-0.2-0.3-0.5-0.6-0.7-0.9c-0.6-0.8-1.3-1.5-2-2.1
			c4.5-11.4,17-16.2,23.1-26.9c2.8-5,4-10.7,4.8-16.7c9.9-3.9,19.3-3.9,30.2-1.4c8,1.9,15.8,4.1,23.8,5.2c1.3,9.3-3.3,17.6-7.7,25.6
			c-3.4,6.2-5.1,11.8-5.9,18.3c-0.6,1.6-1,3.3-1.2,5.1c-0.1,1.1,1,2,2,2c3.8-0.1,7.6-0.3,11.4-0.4c4.4-0.1,8.9,0.6,13.3,0.1
			c0.4,0,0.6-0.4,0.7-0.7c0.1-0.1,0.1-0.3,0.1-0.4c-0.1-0.5-0.3-1-0.6-1.5c0.6,0,1.2-0.1,1.8-0.1c0.4,0,0.5-0.6,0.1-0.8
			c0.1-0.1,0.1-0.3,0-0.5c-2.1-2.7-5.5-4.4-9-5.3c3.5-5,8.8-8,14.3-11.2c5.7-3.3,10.1-7.2,13.7-12.6c4-6,6.8-12.3,11.6-17.8
			c2.8-3.2,6-5.7,9.4-8.1c17.7,9.2,33.4,22.7,46.4,37.7c5.4,6.2,10.2,15.2,17.3,19.6c7.1,4.4,14.1,1.4,21.4,1.6
			c1.4,0.2,2.9,0.4,4.3,0.5c0.2,0,0.3,0.1,0.5,0.1c0.3,0.1,0.5,0.1,0.7,0c0.1,0,0.2,0,0.3,0c4.2,0.4,8,1.9,12.2,2.5
			c0.7,0.1,0.9-0.6,0.6-1.1c0.4-1.3,0-2.7-0.8-4c0.7,0,1.4,0.1,2.1,0.1c0.1,0,0.2,0,0.2,0c0.4,0.1,0.9-0.3,0.7-0.7
			c-0.5-1.2-1.2-2.3-2.1-3.4c1,0.1,1.9,0.1,2.9-0.1c0.8-0.1,0.8-1.1,0.3-1.5c-0.2-4.6-5.8-8.8-9.3-11.2c-4.4-2.9-9.9-3.8-15.3-4
			c-9.8-7-9.7-23.7-11.5-34.5c-1.6-9.3-7.5-16.7-11.3-25c0.4-0.1,0.9-0.3,1.3-0.6c5.4-4.8,11.4-7.6,18.1-8.9
			c11.8,1.5,23.5,3.5,35.3,5.5c18.2,3.1,38.3,6.1,56.3,0.2c0.5-0.2,0.7-0.5,0.8-0.9c5.9-1.1,11.4-3.6,15.1-8.1
			C650.5,825.9,633,819.7,627.6,816.1z"/>
		<path d="M1304.6,235c-4.4-27.8-12.1-55.3-32.7-75.7c-12.4-12.3-29-20-44.5-27.5c-7.3-3.5-14.7-6.9-22.1-10.2
			c-9.9-17.1-22.9-32-43.6-36c-13.8-2.7-28.3,1.1-42.1,2.3c-10,0.9-20.1,1.2-30.2,0.9c-5.8-4.3-11.8-8.4-17.8-12.4
			c-1.7-7.4-5.3-14.6-10-19.9c0.1-1.1-1.1-2.2-2.5-1.6c-6.2,2.8-12,6.3-17.2,10.5c-14.7-0.9-27.2,3.5-38.9,13.5
			c-13,11.2-21.2,29.2-38.4,34.4c-5.1,1.6-11.9,3.5-11.9,10.2c0,6.9,3.1,12.7,7.8,17.5c4.7,4.8,10.2,6.8,16,7
			c6.7,4.4,15.9,4.5,23.7,4.6c10.5,0.2,20.9-0.2,31.3,0.6c8.8,0.7,17.3,2.3,25.7,4.6c11.1,14.2,21.7,30.6,33.8,45.1
			c-1.3,25,13.9,50,31.7,68.5c0.6,1.9,1.2,3.7,1.9,5.6c0.7,2.1,1.5,4.1,2.3,6.1c-10.5-2.6-21.7-3.3-31.8-0.3
			c-0.3,0.1-0.4,0.2-0.5,0.4c-0.2,0.3-0.2,0.6,0,0.9c0.1,0.2,0.4,0.4,0.7,0.4c0.1,0,0.1,0,0.2,0c4.4,1.4,8.8,2.8,13.2,4.1
			c-3.2,0.7-6.3,1.5-9.3,2.7c-3.3,0.7-6.5,1.7-9.7,3c-0.3,0.1-0.4,0.3-0.5,0.5c-0.5,0.4-0.3,1.2,0.4,1.2c5.3,0.4,10.4,1,15.5,1.8
			c-4.4,1.7-8.6,3.8-12.6,6.5c-0.8,0.5-0.1,1.7,0.8,1.3c0,0,0.1,0,0.1-0.1c0,0,0.1,0,0.1,0.1c9.1,0.2,18.1-0.2,27.2,0.8
			c7.4,0.8,14.9,3.1,21.8,6.2c2.1,3,4.4,6.1,7.1,9c0.6,14,3.6,27.9,8.3,41.3c8.4,23.6,22.3,44.6,29.2,68.6
			c-8.3,0.4-17,3.5-21.5,10.5c0,0,0,0,0,0c-0.3,0.2-0.3,0.6,0,0.8c0.7,0.4,1.5,0.6,2.2,0.6c-2.4,1.8-4.3,4.1-5.1,6.8
			c-0.1,0.5,0.4,0.8,0.7,0.6c0.1,0.1,0.3,0.2,0.4,0.1c2.1-0.2,4.2-0.4,6.2-0.5c-1.4,1.1-2.7,2.4-3.1,3.9c-0.2,0.3-0.2,0.8,0.3,0.9
			c8.2,1.2,16.4,0.6,24.7,0.1c3.6-0.2,8,0.2,11.4-0.7c1-0.3,1.7-1.3,2.2-2.4c8.8-9.1,14.7-22.1,21.4-32.8
			c4.6-7.4,9.2-14.8,13.7-22.3c2.8,5.7,6.1,11.2,9.8,16.4c6.4,9,18.4,16.4,21.3,27.3c0.1,0.5,0.8,0.5,1,0.2c0.2,0,0.4-0.1,0.5-0.3
			c1.2-1.8,2.3-3.7,3.4-5.6c-0.1,2.1-0.2,4.2-0.2,6.4c-0.3,1.8-0.7,3.5-0.9,5.3c-0.1,0.8,0.1,1.4,0.8,1.9c6,4.5,15.2,3,19.2-3.7
			c2.9-4.9,3.6-10,3.2-15.1c2.9-6,6.4-11.7,9.7-17.6c6-10.7,10.2-22.4,13.1-34.4c2.9-12.2,4-24.8,3.3-37.2
			C1329.4,304.4,1322.1,266.9,1304.6,235z"/>
		<path d="M1312.4,563.4c5-3.7,10.5-8.5,13-14.2c0.6,0.2,1.3,0.3,1.9,0.5c0.2,0.1,0.4-0.1,0.5-0.2c0.4,0.2,0.9-0.1,0.9-0.6
			c0-2.1-0.4-4.2-1-6.3c0.4,0.1,0.7,0.1,1.1,0.2c0.2,0,0.4,0,0.6-0.1c0.5,0.2,1.3-0.2,1.1-0.8c-1.2-6.1-2.9-11.9-5.6-17.4
			c3.9-8.3,6.3-17.9,4.7-26.5c0-0.2-0.1-0.3-0.2-0.4c-0.1-0.4-0.3-0.7-0.8-0.7c-7.2-0.3-14,0.7-20.6,3.1c-6.9-4.8-14.9-8.1-23.4-9.8
			c-8.3-1.7-19.6-1.9-28.7,1.1c-6.1-2.8-12.6-4.7-19.1-5c-0.2,0-0.3,0-0.5,0.1c-0.3,0-0.6,0.1-0.8,0.5c-3.3,7.1-2.3,15.7,0.8,23
			c-4.3,4.2-7.8,9.2-10.6,14.5c0,0-0.1,0-0.1,0c-0.3,0.2-0.4,0.8,0.1,0.8c0,0,0,0,0,0c0.2,0.2,0.5,0.2,0.7,0c0.1,0,0.1,0,0.2,0
			c-2,2.5-3.6,5.3-4.5,8.3c0,0,0,0-0.1,0c-0.3,0.3,0,0.8,0.4,0.7c1.2-0.1,2.4-0.6,3.7-1c-0.1,0.7-0.2,1.3-0.3,2
			c-7.1-1.1-14.2-1.9-21.3-3.3c-9-1.7-17.9-3.6-26.9-4.6c-5.1-0.6-10.4-0.8-15.6-0.5c-9.2-0.5-18.4,1-27.4,2.6
			c-10.1,1.8-19.9,4.8-29.1,9.1c-16.3,7.8-29.9,21.8-33.8,39.6c-24.2,9.6-47.3,24.2-52.7,51.5c-1.4,7.3,0,14.8,2.2,21.7
			c2,6,2.7,10.7-1.1,16.3c-2.3,3.5-5.5,6.2-7.7,9.8c-7.5,12-7.7,27.5,0.7,39.1c0.8,1.1,2.9,0.1,2.2-1.2c-0.1-0.2-0.2-0.5-0.3-0.7
			c7-8.3,14.5-13.5,24.2-18.6c8.3-4.4,16.8-8.8,23-15.9c8.6-9.8,9.7-23.7,11-36c0.6-5.2,1.4-10.9,3-16.1c1.8,3.4,3.8,6.7,6.2,9.9
			c3.3,4.6,7.7,8.4,9,14.1c1.6,6.6-5.5,8.1-6.7,13.3c-1.8,7.5,7.6,13.6,11.4,19.2c6.1,8.8,9.4,19,11.2,29.5c0.3,1.7,1.8,2.4,3.1,2.2
			c3.9,2.5,9,2.9,13.5,3.7c6.4,1.2,12.9,2.1,19.4,2.6c1.2,0.1,1.9-0.5,2.3-1.6c0.1-0.4,0.2-0.8,0.3-1.1c0.2-0.1,0.4-0.3,0.4-0.6
			c0.1-3.9-1.2-7.6-3.3-10.8c-3.6-5.3-10.7-5.7-13.4-12c-0.9-2.2-1.3-4.5-1.5-6.8c9.8-7.4,19.4-15.3,26.5-25c15,1.6,30,0.1,44.1-4.7
			c3.9,12.5,7.9,24.8,9.8,38c1.9,13.1-2,29.8,6.3,41.1c0,0,0,0,0,0.1c0.2,0.2,0.3,0.4,0.4,0.6c0.1,0.2,0.3,0.3,0.5,0.5
			c0.8,0.8,1.8,1.5,2.8,2c1.5,0.8,3.4,1.1,5,1.6c2.5,0.7,5,1.6,7.6,2.1c0.2,0,0.4-0.1,0.6-0.2c0.1,0,0.1,0,0.2-0.1
			c1.1-0.6,1.1-2.3,0.8-3.8c2.9,0.5,5.8,1.3,8.6,2.4c0.1,0,0.2,0,0.3,0c0.3,0.5,0.9,0.3,1-0.3c0-1.3-0.1-2.5-0.3-3.7
			c3.3,0.3,6.7,1,10,1.8c0.1,0.1,0.2,0.3,0.3,0.4c0.3,0.5,1,0.3,1.1-0.3c1.1-6-3.7-12.6-7.4-16.9c-2.8-3.2-6.3-5.6-10.1-7.3
			c4.6-17.6,5.9-36.2,4.7-54.4c4.3-0.8,8.6-1.9,12.7-3.3c4.5,11.7,6.9,24.5,6.1,37c-0.7,9.9-6.8,21.5-3.4,31.3
			c-1.3,3.7,3.1,5.2,6.3,5.3c4.6,0.2,8.9,0.6,13.4,1.6c5.1,1.1,9.8,3.5,14.9,4.4c0.3,0,0.5-0.1,0.6-0.3c0.3-0.1,0.6-0.4,0.6-0.8
			c0-0.6-0.1-1.2-0.1-1.7c0,0,0,0,0,0c0.8,0.5,1.5-0.2,1.7-0.9c2.4-3.6-2.1-9.7-4.4-12.3c-1.8-2-4-3.5-6.4-4.8
			c-1.6-0.8-3.2-1.3-4.8-1.8c-1.3-4.7,2.6-9.9,5.4-14.1c3.4-5,6.2-10.4,8.6-16c3.8-9,6.2-18.7,6.3-28.5c8.4-11.5,15.5-24.2,20-37.6
			c0,0.3,0,0.6,0,0.9c0,0.5,0.8,0.8,1.1,0.3c2.5-4,3.8-8.6,4.2-13.4c0.1,1.4,0.2,2.7,0.2,4.1c0,1,1.7,1.1,1.8,0
			C1328.2,595.5,1322.9,577.3,1312.4,563.4z"/>
		<path d="M908.2,154.6c-4.5-9.8-10.9-18.5-18.6-25.5C875.1,97.2,839,74.5,807.7,62c-17.1-6.8-34.5-9.7-52.8-8.4
			c-11.3,0.8-22.5,2.8-33.6,5.1c-9.7,1.9-19.6,3.6-29.4,5.8c-6.3-1-12.6-2-18.8-2.8c-14.7-2-29.9-4.1-45-4.6
			c-9.5-4.1-19.2-7.6-29.2-10.2c-3.5-5.9-8.2-11.2-14-14.4c-0.1-0.3-0.4-0.7-0.8-0.4c-3.4,2.6-6.4,5.8-9,9.3
			c-14,3.1-27,10.1-33.8,23.2c-4.3,8.2-5.5,17.7-8.6,26.4c-3.9,11.2-11.3,20.9-20.1,28.7c-1.5,1.3-0.8,3.4,0.6,4.4
			c12.6,9.3,28.3,9.8,40.7,3.2c9.6-0.9,17.2-8.4,26.9-9.5c3.6-0.4,7.1,0.2,10.6,1.4c4.1,9.5,8.8,19.3,14.5,28.2
			c0.8,5.4,0.6,10.9-0.6,16.4c-1.7,8-7.2,13.6-12.1,19.8c-3.2,4.1-4.8,8.2-5.3,13.4c-0.7,7.7,3.3,15-0.1,22.5c-0.5,1.2,0,2.3,0.8,3
			c1.1,5.3,6.5,9.5,12.7,7.8c0.9-0.3,1.8-1.2,1.7-2.3c-0.3-2.8,0.1-5.7,0.1-8.5c0-3.3-0.3-6.6-0.2-9.9c0-0.2,0-0.4,0-0.6
			c6-7.8,11.5-14.4,20.2-19.5c6.1-3.5,12.6-5.8,19.3-7.7c2.4,15.4,4.5,31.5,0.5,46.3c-3.3,12.1-14,7.3-22,12.2
			c-4.9,3-7.9,6.9-6.6,12.8c0.2,0.9,0.7,1.4,1.4,1.7c7.7,6.5,19.7,6.2,29.3,3.5c0.4,0,0.7-0.1,1.1-0.3c0.7-0.2,1.3-0.4,2-0.6
			c0.6-0.2,1-0.5,1.3-0.9c0.2,0.1,0.6,0,0.8-0.2c2.2-3,4-6.4,5.5-10c6.8-9.2,12.7-18.9,17.6-29.4c4.4-9.4,8.8-20.3,11.1-31.1
			c13.9,0.9,28.4-0.3,41.9-1.1c5.7-0.3,11.5-0.7,17.2-1.2c6.5,8.2,13.7,16,21.1,23.5c7.2,7.2,15.1,13.7,22.8,20.3
			c7.1,6.1,12.4,13.2,12.6,21.9c-7.3,5.9-19,9.7-15.8,21.1c0.3,1,1.1,1.5,2.1,1.6c8.4,0.8,20.2,4.6,28,0.1c4.9-2.9,5.3-9.2,7.6-14
			c4.5,0.3,8.9,0.6,13.3,0.9c6.7,0.5,13.4,1.8,19.8-1c5.8-2.6,5.1-11,7.6-15.7c2.3-4.3,8.9-8.6,8.2-14.2c-0.6-4.9-3-7.6-7.2-10
			c-3.7-2.1-7.5-3-9.3-7.5c-1.7-4.3,0.4-9.4,2.6-13c5.3-8.5,15.7-13.5,21-21.4c6.5,6.9,10.2,15.2,8.2,27.6
			c-1.9,11.8-6.8,25.4,1.3,35.8c0,0.4,0.3,0.9,0.7,0.8c0.1,0.1,0.2,0.2,0.3,0.3c0.5,0.6,1.7,0,1.4-0.8c-0.1-0.2-0.1-0.4-0.2-0.6
			C914.4,219.4,920.8,182.5,908.2,154.6z"/>
		<path d="M471,209c-10.7-7.2-22.8-12-35.4-14.6c-6.1-1.3-12.3-1.8-18.5-1.9c-1.6,0-3.4,0-5.3,0c2.5-24.6-6.5-50.5-24.8-67
			c-12-10.9-27.7-19-42.6-24.9c-7-2.8-14.3-4.2-21.6-4.7c-14.9-3.2-31-2.2-46,1.2c-16.6,3.7-32.5,10.4-48.4,16.4
			c-8,3-16,5.8-24.2,8.3c-3.8,1.1-7.8,2-11.7,2.9c-10.6-0.5-21.2,0.2-31.7,2.9c-20.2,5.3-40.3,20.2-55,36c-4.5,1.1-9,2.7-13.4,4.9
			c-0.6,0.3-0.5,1.1-0.1,1.5c0.2,2.4,2.7,4.8,4.2,6.5c0.4,0.4,0.8,0.9,1.3,1.3c-4.6,11.6-2.6,25.2-5.9,37.2
			c-1.4,5.4-8.6,11.4-7,17.2c1.4,4.9,8.9,7.2,13.2,8c15.1,2.8,28.4-7.9,39.4-16.5c11.5-9,24.5-17.2,38.8-20.3c0,0,0,0,0.1,0
			c4.4,2.2,7.9,5,10.4,8.7c-3,6.5-9.3,8.9-15.8,11.9c-4.9,2.3-9.6,5.5-10.7,11.1c-0.1,0.5,0.5,1.1,1,0.8c4.5,0.9,9.3,1,13.9,1.9
			c2.4,0.5,4.8,0.8,7.2,0.8c-2,1.8-4.3,3.3-6.5,4.7c-8.2,5-22.7,11.9-19.9,23.9c0,0.1,0.1,0.1,0.1,0.1c0,0.4,0.3,0.8,0.7,0.6
			c1.8-0.7,3.6-1.4,5.4-1.9c-0.6,1.9-0.7,3.8-0.2,5.6c0,0,0,0,0,0c-0.3,0.5,0.2,1.1,0.8,0.8c2.3-1.2,4.5-2.2,6.8-3.1
			c-0.4,1.3-0.7,2.6-0.8,4c-0.2,0.2-0.2,0.5,0,0.7c0,0,0,0,0,0c0,0.1,0.1,0.2,0.2,0.2c0.2,0.1,0.4,0.1,0.6,0c2.3-1,4.7-1.9,6.8-3.2
			c0.1,0,0.2,0,0.4-0.1c6.5-2.8,11.9-7.8,16.6-13.2c0.3,0.3,0.9,0.4,1.3,0.1c11.4-9.8,34.5-20.9,39.3-37.1c21.2,7,45,8.9,67.1,5.2
			c1.4,2.5,3.2,4.8,5.2,6.9c-13.6,2-26.2,8.8-27.5,24.3c0,0.3,0.2,0.5,0.4,0.6c0.1,0.2,0.3,0.5,0.6,0.5c1.7,0,3.3-0.4,4.9-0.9
			c-1.2,2.3-2.1,4.9-2.7,7.6c0,0,0,0-0.1,0.1c-0.3,0.3,0,0.9,0.5,0.8c2.6-0.8,4.9-2.2,7.4-3.3c0.6-0.3,1.3-0.5,2-0.8
			c-0.6,1.9-1.1,3.8-1.3,5.8c-0.1,1.1,1.3,1.3,1.9,0.6c2.2-1.5,4.2-3.3,6.4-5c-0.3,0.8-0.6,1.5-0.8,2.3c-0.4,1.3,1.5,1.7,2,0.5
			c0,0,0-0.1,0.1-0.1c20-11.2,40.1-20.8,63.2-23c15.7-1.5,34.8-1.9,45.6-14.1c6.7,7.4,14.8,13.6,23.9,18.5
			c9.2,4.9,19.5,8.2,29.9,9.4c13.5,1.6,31.5-3,38.5,12c0.3,0.7,1.3,0.4,1.5-0.2c0.3,0,0.6-0.1,0.8-0.4
			C514.8,245.2,487.4,220.2,471,209z"/>
		<path d="M1193.4,946.6c-0.2-4.2-2.7-8.8-4.5-12.4c-2.3-4.7-5.3-9-8.9-12.8c-7.8-8.3-18.5-11.2-29.3-13.5c-8.9-1.9-17.4-4.2-24.8-9
			c-2.5-3-4.5-6.5-5.9-10.1c-5-12.2-5-25.8-7.1-38.7c-2-12.1-5.9-23.8-11-34.9c-2.5-5.5-5.6-10.7-8.8-15.7c-0.6-0.9-1.2-1.8-1.8-2.7
			c-5.5-8-12.7-15-20.3-20.9c-11.3-8.7-24.1-15.2-37.6-19.7c-33.5-11.2-69.3-10.2-104.2-9.4c-11.7,0.3-23.5,0.6-35.3,0.5
			c-10.9-5.5-22.1-10.4-33.8-14.2c-26.9-8.7-57.8-11.5-84.7-1.5c-0.3-0.3-0.6-0.7-0.9-1c-2.5-2.8-5.3-5.7-8.5-7.8
			c-0.4-0.3-0.8,0-1,0.4c-4.8,3.9-7.7,10.6-9.7,16.2c-0.2,0.5-0.3,1-0.5,1.5c-8.9,5.7-15.4,14.4-19.2,24.4c-2.7,7-4.6,13.8-9.2,19.8
			c-4,5.2-9.1,9.4-13.1,14.6c-1.3,1.6-2.5,3.6-1.3,5.7c1.4,2.4,3.6,4.3,5.9,5.9c5.3,3.7,11.9,4.4,18.1,3.4
			c10.3-1.6,18.5-8.1,27.4-13.2c9.3,1.3,18.7,1.8,28.1,1.7c4.3,3.6,9,6.6,13.8,9.3c3.4,1.9,7,3.7,10.7,5.1c3,5.7,7,11,11.3,15.7
			c2,2.3,4.2,4.5,6.6,6.6c1,7.1,0.6,14.3-0.2,21.4c-0.7,6.8-0.5,17.4-7.4,21.3c-0.1,0.1-0.2,0.1-0.3,0.2c-3.5,0.1-7,0.6-10.4,1.6
			c-5.9,1.7-12.9,5.1-16.3,10.4c-0.3,0.5,0.3,1.2,0.8,0.8c0.1,0,0.1-0.1,0.2-0.1c1.8,0.3,3.6,0.2,5.4,0.4c0.4,0,0.8,0.1,1.2,0.2
			c-1.5,1.3-2.8,2.8-4,4.5c-0.1,0.2-0.1,0.4,0.1,0.5c0,0.2,0,0.4,0.2,0.4c1.8,0.3,3.6-0.4,5.4-0.6c1-0.1,2-0.2,2.9-0.1
			c-1.5,1.5-2.8,3.2-3.7,5c-0.1,0.2,0,0.4,0.1,0.5c0.1,0.1,0.2,0.2,0.3,0.2c1.3,0.4,2.7-0.5,4-0.9c0.5-0.1,0.9-0.3,1.4-0.4
			c12.5-0.3,25.1-3,34.6-11.7c5.3-4.9,9.4-11.2,14.2-16.6c0.7-0.8,1.5-1.7,2.3-2.5c-0.2,3.1-0.7,6.1-1.5,9.1
			c-1.9,6.8-6.3,11.7-12.4,14.9c-8.7,4.6-23.4,7.2-25.1,19c0,0.2,0.1,0.3,0.2,0.4c0.1,0.3,0.4,0.5,0.7,0.3c2.6-1.5,5.4-2.4,8.3-2.9
			c-2,2.1-3.7,4.5-5.1,7.3c-0.2,0.5,0.4,0.9,0.7,0.6c1.9-0.3,3.6-1.2,5.4-1.8c1.1-0.4,2.3-0.7,3.4-0.9c-1,1.5-1.7,3-1.9,4.6
			c0,0.2,0.1,0.3,0.2,0.3c0,0.1,0.1,0.3,0.2,0.2c3.9-2.8,8.3-4.2,13.1-4.7c5.2-0.5,10.4-0.3,15.4-2c6.4-2.2,10-7.5,12.3-13.5
			c1.1-0.8,2.1-1.7,3.2-2.5c2.3-1.6,4.7-3.1,7.1-4.5c4.6-2.8,9-5.9,12.9-9.8c1.7-1.6,3.2-3.4,4.6-5.2c5,2.7,10.4,4.7,16.2,6.3
			c10.8,3,22,4.7,33.2,5.8c18.9,1.8,40.7-0.7,57.6,9c-4.2,3.3-10.4,4.5-15.7,5.3c-7.7,1.1-16,2.7-20.3,9.9c0,0,0,0,0,0
			c-0.3,0.3-0.1,0.8,0.4,0.9c1.3,0.1,2.7-0.4,4-0.5c1.1-0.1,2.1-0.2,3.2-0.2c-1.2,1-2.2,2.1-3.2,3.3c-0.4,0.5,0.5,1.2,0.9,0.7
			c0.1-0.1,0.1-0.1,0.2-0.2c2.2,0.2,4.5,0.3,6.8,0.4c-0.2,0.3-0.5,0.5-0.7,0.8c-0.5,0.6,0.3,1.4,0.8,0.8c0.1-0.1,0.3-0.2,0.4-0.4
			c3.3-0.3,6.7-0.9,10-1.3c3.7-0.4,7.5-0.6,11.2-1c2.6-0.3,5.2-0.7,7.7-1.4c-2.9,3-5.8,6.9-6.7,10.9c-0.1,0.5,0.5,0.9,0.9,0.5
			c0,0,0.1,0,0.1,0c1.4-0.3,2.7-1.2,4-1.7c1.1-0.4,2.2-0.7,3.3-1c-1.2,1.8-2.2,3.6-3.1,5.6c-0.4,0.9,0.8,1.7,1.3,0.9
			c3.1-1.4,6.3-2.6,9.7-3.2c-1.1,1.7-2,3.6-2.7,5.5c-0.1,0.1-0.2,0.3-0.2,0.5c-0.1,0.9,1,1.2,1.5,0.5c0,0,0-0.1,0.1-0.1
			c2.9-0.7,5.9-1.1,8.8-1.9c3.5-1,6.9-2.2,10.4-3.2c3.3-1,6.5-1.9,9.8-2.7c3.5-0.8,7.2-0.9,10.8-1.1c5.8-0.3,11.4-1,16.4-4
			c2.1-1.3,3.9-2.9,5.4-4.8c5.4,0.8,10.7,3.6,15.4,6.5c8.7,5.4,17.4,10.2,27.1,13.6c9.3,3.2,19.1,4.9,28.9,5.5
			c10.8,0.6,21.6-0.9,32.4,0.1c0.2,0.1,0.4,0.2,0.6,0C1194,948.1,1194.1,946.9,1193.4,946.6z"/>
	</g>
</g>
</svg>
